HA-CJ-200w_bsi-test_v2.05/.Xil/Vivado-24060-DESKTOP-SMDB1TL/hw_ila_data_5/zip_work/waveform.vcd
$date
        2024-Aug-12 18:44:36
$end
$version
        Vivado v2018.3.1_AR71948_AR71948 (64-bit)
$end
$timescale
        1ps
$end
$scope module dut $end
$var reg 1 " \pixel_top_inst/pixel_sync[13].u_pixel_receive/pins[0].data_in_from_pins_delay_buf_reg_n_0_ $end
$var reg 1 # \pixel_top_inst/pixel_sync[13].u_pixel_receive/pins[1].data_in_from_pins_delay_buf_reg_n_0_ $end
$var reg 1 $ \pixel_top_inst/pixel_sync[13].u_pixel_receive/pins[2].data_in_from_pins_delay_buf_reg_n_0_ $end
$var reg 1 % \pixel_top_inst/pixel_sync[13].u_pixel_receive/pins[3].data_in_from_pins_delay_buf_reg_n_0_ $end
$var reg 1 & \pixel_top_inst/pixel_sync[13].u_pixel_receive/pins[4].data_in_from_pins_delay_buf_reg_n_0_ $end
$var reg 1 ' \pixel_top_inst/pixel_sync[13].u_pixel_receive/pins[5].data_in_from_pins_delay_buf_reg_n_0_ $end
$var reg 1 ( \pixel_top_inst/pixel_sync[13].u_pixel_receive/pins[6].data_in_from_pins_delay_buf_reg_n_0_ $end
$var reg 1 ) \pixel_top_inst/pixel_sync[13].u_pixel_receive/pins[7].data_in_from_pins_delay_buf_reg_n_0_ $end
$var reg 1 * \pixel_top_inst/pixel_sync[13].u_pixel_receive/pins[8].data_in_from_pins_delay_buf_reg_n_0_ $end
$var reg 1 + \pixel_top_inst/pixel_sync[13].u_pixel_receive/pins[9].data_in_from_pins_delay_buf_reg_n_0_ $end
$var reg 1 , \pixel_top_inst/pixel_sync[13].u_pixel_receive/pins[10].data_in_from_pins_delay_buf_reg_n_0_ $end
$var reg 1 - \pixel_top_inst/pixel_sync[13].u_pixel_receive/pins[11].data_in_from_pins_delay_buf_reg_n_0_ $end
$var reg 1 . \pixel_top_inst/pixel_sync[13].u_pixel_receive/pixel_frame $end
$var reg 8 / \pixel_top_inst/pixel_sync[13].u_pixel_receive/frame_cnt [7:0] $end
$var reg 16 7 \pixel_top_inst/pixel_sync[13].u_pixel_receive/line_cnt [15:0] $end
$var reg 8 G \pixel_top_inst/pixel_sync[13].u_pixel_receive/bit_cnt [7:0] $end
$var reg 1 O \pixel_top_inst/pixel_sync[13].u_pixel_receive/DATA_EN $end
$var reg 276 P \pixel_top_inst/pixel_sync[13].u_pixel_receive/data_out_276bit [275:0] $end
$var reg 1 J$ _TRIGGER $end
$var reg 1 K$ _WINDOW $end
$var reg 1 L$ _GAP $end
$upscope $end
$enddefinitions $end
#0
$dumpvars
1"
1#
1$
1%
1&
1'
1(
1)
1*
1+
1,
1-
0.
b0 /
b100011010 7
b10001 G
0O
b111111111111111111111111111111111111111111111111111111111111111111111111111111111111111111111111111111111111111111111111111111111111111111111111111111111111111111111111111111111111111111111111111111111111111111111111111111111111111111111111111111111111111111111111111111111111 P
0J$
1K$
0L$
$end
#1
b10010 G
#2
b10011 G
#3
b10100 G
#4
b10101 G
#5
b10110 G
#6
b100011011 7
b0 G
1O
#7
b1 G
0O
#8
b10 G
#9
b11 G
#10
b100 G
#11
b101 G
#12
b110 G
#13
b111 G
#14
b1000 G
#15
b1001 G
#16
b1010 G
#17
b1011 G
#18
b1100 G
#19
b1101 G
#20
b1110 G
#21
b1111 G
#22
b10000 G
#23
b10001 G
#24
b10010 G
#25
b10011 G
#26
b10100 G
#27
b10101 G
#28
b10110 G
#29
b100011100 7
b0 G
1O
#30
b1 G
0O
#31
b10 G
#32
b11 G
#33
b100 G
#34
b101 G
#35
b110 G
#36
b111 G
#37
b1000 G
#38
b1001 G
#39
b1010 G
#40
b1011 G
#41
b1100 G
#42
b1101 G
#43
b1110 G
#44
b1111 G
#45
b10000 G
#46
b10001 G
#47
b10010 G
#48
b10011 G
#49
b10100 G
#50
b10101 G
#51
b10110 G
#52
b100011101 7
b0 G
1O
#53
b1 G
0O
#54
b10 G
#55
b11 G
#56
b100 G
#57
b101 G
#58
b110 G
#59
b111 G
#60
b1000 G
#61
b1001 G
#62
b1010 G
#63
b1011 G
#64
b1100 G
#65
b1101 G
#66
b1110 G
#67
b1111 G
#68
b10000 G
#69
b10001 G
#70
b10010 G
#71
b10011 G
#72
b10100 G
#73
b10101 G
#74
b10110 G
#75
b100011110 7
b0 G
1O
#76
b1 G
0O
#77
b10 G
#78
b11 G
#79
b100 G
#80
b101 G
#81
b110 G
#82
b111 G
#83
b1000 G
#84
b1001 G
#85
b1010 G
#86
b1011 G
#87
b1100 G
#88
b1101 G
#89
b1110 G
#90
b1111 G
#91
b10000 G
#92
b10001 G
#93
b10010 G
#94
b10011 G
#95
b10100 G
#96
b10101 G
#97
b10110 G
#98
b100011111 7
b0 G
1O
#99
b1 G
0O
#100
b10 G
#101
b11 G
#102
b100 G
#103
b101 G
#104
b110 G
#105
b111 G
#106
b1000 G
#107
b1001 G
#108
b1010 G
#109
b1011 G
#110
b1100 G
#111
b1101 G
#112
b1110 G
#113
b1111 G
#114
b10000 G
#115
b10001 G
#116
b10010 G
#117
b10011 G
#118
b10100 G
#119
b10101 G
#120
b10110 G
#121
b100100000 7
b0 G
1O
#122
b1 G
0O
#123
b10 G
#124
b11 G
#125
b100 G
#126
b101 G
#127
b110 G
#128
b111 G
#129
b1000 G
#130
b1001 G
#131
b1010 G
#132
b1011 G
#133
b1100 G
#134
b1101 G
#135
b1110 G
#136
b1111 G
#137
b10000 G
#138
b10001 G
#139
b10010 G
#140
b10011 G
#141
b10100 G
#142
b10101 G
#143
b10110 G
#144
b100100001 7
b0 G
1O
#145
b1 G
0O
#146
b10 G
#147
b11 G
#148
b100 G
#149
b101 G
#150
b110 G
#151
b111 G
#152
b1000 G
#153
b1001 G
#154
b1010 G
#155
b1011 G
#156
b1100 G
#157
b1101 G
#158
b1110 G
#159
b1111 G
#160
b10000 G
#161
b10001 G
#162
b10010 G
#163
b10011 G
#164
b10100 G
#165
b10101 G
#166
b10110 G
#167
b100100010 7
b0 G
1O
#168
b1 G
0O
#169
b10 G
#170
b11 G
#171
b100 G
#172
b101 G
#173
b110 G
#174
b111 G
#175
b1000 G
#176
b1001 G
#177
b1010 G
#178
b1011 G
#179
b1100 G
#180
b1101 G
#181
b1110 G
#182
b1111 G
#183
b10000 G
#184
b10001 G
#185
b10010 G
#186
b10011 G
#187
b10100 G
#188
b10101 G
#189
b10110 G
#190
b100100011 7
b0 G
1O
#191
b1 G
0O
#192
b10 G
#193
b11 G
#194
b100 G
#195
b101 G
#196
b110 G
#197
b111 G
#198
b1000 G
#199
b1001 G
#200
b1010 G
#201
b1011 G
#202
b1100 G
#203
b1101 G
#204
b1110 G
#205
b1111 G
#206
b10000 G
#207
b10001 G
#208
b10010 G
#209
b10011 G
#210
b10100 G
#211
b10101 G
#212
b10110 G
#213
b100100100 7
b0 G
1O
#214
b1 G
0O
#215
b10 G
#216
b11 G
#217
b100 G
#218
b101 G
#219
b110 G
#220
b111 G
#221
b1000 G
#222
b1001 G
#223
b1010 G
#224
b1011 G
#225
b1100 G
#226
b1101 G
#227
b1110 G
#228
b1111 G
#229
b10000 G
#230
b10001 G
#231
b10010 G
#232
b10011 G
#233
b10100 G
#234
b10101 G
#235
b10110 G
#236
b100100101 7
b0 G
1O
#237
b1 G
0O
#238
b10 G
#239
b11 G
#240
b100 G
#241
b101 G
#242
b110 G
#243
b111 G
#244
b1000 G
#245
b1001 G
#246
b1010 G
#247
b1011 G
#248
b1100 G
#249
b1101 G
#250
b1110 G
#251
b1111 G
#252
b10000 G
#253
b10001 G
#254
b10010 G
#255
b10011 G
#256
b10100 G
#257
b10101 G
#258
b10110 G
#259
b100100110 7
b0 G
1O
#260
b1 G
0O
#261
b10 G
#262
b11 G
#263
b100 G
#264
b101 G
#265
b110 G
#266
b111 G
#267
b1000 G
#268
b1001 G
#269
b1010 G
#270
b1011 G
#271
b1100 G
#272
b1101 G
#273
b1110 G
#274
b1111 G
#275
b10000 G
#276
b10001 G
#277
b10010 G
#278
b10011 G
#279
b10100 G
#280
b10101 G
#281
b10110 G
#282
b100100111 7
b0 G
1O
#283
b1 G
0O
#284
b10 G
#285
b11 G
#286
b100 G
#287
b101 G
#288
b110 G
#289
b111 G
#290
b1000 G
#291
b1001 G
#292
b1010 G
#293
b1011 G
#294
b1100 G
#295
b1101 G
#296
b1110 G
#297
b1111 G
#298
b10000 G
#299
b10001 G
#300
b10010 G
#301
b10011 G
#302
b10100 G
#303
b10101 G
#304
b10110 G
#305
b100101000 7
b0 G
1O
#306
b1 G
0O
#307
b10 G
#308
b11 G
#309
b100 G
#310
b101 G
#311
b110 G
#312
b111 G
#313
b1000 G
#314
b1001 G
#315
b1010 G
#316
b1011 G
#317
b1100 G
#318
b1101 G
#319
b1110 G
#320
b1111 G
#321
b10000 G
#322
b10001 G
#323
b10010 G
#324
b10011 G
#325
b10100 G
#326
b10101 G
#327
b10110 G
#328
b100101001 7
b0 G
1O
#329
b1 G
0O
#330
b10 G
#331
b11 G
#332
b100 G
#333
b101 G
#334
b110 G
#335
b111 G
#336
b1000 G
#337
b1001 G
#338
b1010 G
#339
b1011 G
#340
b1100 G
#341
b1101 G
#342
b1110 G
#343
b1111 G
#344
b10000 G
#345
b10001 G
#346
b10010 G
#347
b10011 G
#348
b10100 G
#349
b10101 G
#350
b10110 G
#351
b100101010 7
b0 G
1O
#352
b1 G
0O
#353
b10 G
#354
b11 G
#355
b100 G
#356
b101 G
#357
b110 G
#358
b111 G
#359
b1000 G
#360
b1001 G
#361
b1010 G
#362
b1011 G
#363
b1100 G
#364
b1101 G
#365
b1110 G
#366
b1111 G
#367
b10000 G
#368
b10001 G
#369
b10010 G
#370
b10011 G
#371
b10100 G
#372
b10101 G
#373
b10110 G
#374
b100101011 7
b0 G
1O
#375
b1 G
0O
#376
b10 G
#377
b11 G
#378
b100 G
#379
b101 G
#380
b110 G
#381
b111 G
#382
b1000 G
#383
b1001 G
#384
b1010 G
#385
b1011 G
#386
b1100 G
#387
b1101 G
#388
b1110 G
#389
b1111 G
#390
b10000 G
#391
b10001 G
#392
b10010 G
#393
b10011 G
#394
b10100 G
#395
b10101 G
#396
b10110 G
#397
b100101100 7
b0 G
1O
#398
b1 G
0O
#399
b10 G
#400
b11 G
#401
b100 G
#402
b101 G
#403
b110 G
#404
b111 G
#405
b1000 G
#406
b1001 G
#407
b1010 G
#408
b1011 G
#409
b1100 G
#410
b1101 G
#411
b1110 G
#412
b1111 G
#413
b10000 G
#414
b10001 G
#415
b10010 G
#416
b10011 G
#417
b10100 G
#418
b10101 G
#419
b10110 G
#420
b100101101 7
b0 G
1O
#421
b1 G
0O
#422
b10 G
#423
b11 G
#424
b100 G
#425
b101 G
#426
b110 G
#427
b111 G
#428
b1000 G
#429
b1001 G
#430
b1010 G
#431
b1011 G
#432
b1100 G
#433
b1101 G
#434
b1110 G
#435
b1111 G
#436
b10000 G
#437
b10001 G
#438
b10010 G
#439
b10011 G
#440
b10100 G
#441
b10101 G
#442
b10110 G
#443
b100101110 7
b0 G
1O
#444
b1 G
0O
#445
b10 G
#446
b11 G
#447
b100 G
#448
b101 G
#449
b110 G
#450
b111 G
#451
b1000 G
#452
b1001 G
#453
b1010 G
#454
b1011 G
#455
b1100 G
#456
b1101 G
#457
b1110 G
#458
b1111 G
#459
b10000 G
#460
b10001 G
#461
b10010 G
#462
b10011 G
#463
b10100 G
#464
b10101 G
#465
b10110 G
#466
b100101111 7
b0 G
1O
#467
b1 G
0O
#468
b10 G
#469
b11 G
#470
b100 G
#471
b101 G
#472
b110 G
#473
b111 G
#474
b1000 G
#475
b1001 G
#476
b1010 G
#477
b1011 G
#478
b1100 G
#479
b1101 G
#480
b1110 G
#481
b1111 G
#482
b10000 G
#483
b10001 G
#484
b10010 G
#485
b10011 G
#486
b10100 G
#487
b10101 G
#488
b10110 G
#489
b100110000 7
b0 G
1O
#490
b1 G
0O
#491
b10 G
#492
b11 G
#493
b100 G
#494
b101 G
#495
b110 G
#496
b111 G
#497
b1000 G
#498
b1001 G
#499
b1010 G
#500
b1011 G
#501
b1100 G
#502
b1101 G
#503
b1110 G
#504
b1111 G
#505
b10000 G
#506
b10001 G
#507
b10010 G
#508
b10011 G
#509
b10100 G
#510
b10101 G
#511
b10110 G
#512
b100110001 7
b0 G
1O
1J$
#513
b1 G
0O
#514
b10 G
#515
b11 G
#516
b100 G
#517
b101 G
#518
b110 G
#519
b111 G
#520
b1000 G
#521
b1001 G
#522
b1010 G
#523
b1011 G
#524
b1100 G
#525
b1101 G
#526
b1110 G
#527
b1111 G
#528
b10000 G
#529
b10001 G
#530
b10010 G
#531
b10011 G
#532
b10100 G
#533
b10101 G
#534
b10110 G
#535
b100110010 7
b0 G
1O
#536
b1 G
0O
#537
b10 G
#538
b11 G
#539
b100 G
#540
b101 G
#541
b110 G
#542
b111 G
#543
b1000 G
#544
b1001 G
#545
b1010 G
#546
b1011 G
#547
b1100 G
#548
b1101 G
#549
b1110 G
#550
b1111 G
#551
b10000 G
#552
b10001 G
#553
b10010 G
#554
b10011 G
#555
b10100 G
#556
b10101 G
#557
b10110 G
#558
b100110011 7
b0 G
1O
#559
b1 G
0O
#560
b10 G
#561
b11 G
#562
b100 G
#563
b101 G
#564
b110 G
#565
b111 G
#566
b1000 G
#567
b1001 G
#568
b1010 G
#569
b1011 G
#570
b1100 G
#571
b1101 G
#572
b1110 G
#573
b1111 G
#574
b10000 G
#575
b10001 G
#576
b10010 G
#577
b10011 G
#578
b10100 G
#579
b10101 G
#580
b10110 G
#581
b100110100 7
b0 G
1O
#582
b1 G
0O
#583
b10 G
#584
b11 G
#585
b100 G
#586
b101 G
#587
b110 G
#588
b111 G
#589
b1000 G
#590
b1001 G
#591
b1010 G
#592
b1011 G
#593
b1100 G
#594
b1101 G
#595
b1110 G
#596
b1111 G
#597
b10000 G
#598
b10001 G
#599
b10010 G
#600
b10011 G
#601
b10100 G
#602
b10101 G
#603
b10110 G
#604
b100110101 7
b0 G
1O
#605
b1 G
0O
#606
b10 G
#607
b11 G
#608
b100 G
#609
b101 G
#610
b110 G
#611
b111 G
#612
b1000 G
#613
b1001 G
#614
b1010 G
#615
b1011 G
#616
b1100 G
#617
b1101 G
#618
b1110 G
#619
b1111 G
#620
b10000 G
#621
b10001 G
#622
b10010 G
#623
b10011 G
#624
b10100 G
#625
b10101 G
#626
b10110 G
#627
b100110110 7
b0 G
1O
#628
b1 G
0O
#629
b10 G
#630
b11 G
#631
b100 G
#632
b101 G
#633
b110 G
#634
b111 G
#635
b1000 G
#636
b1001 G
#637
b1010 G
#638
b1011 G
#639
b1100 G
#640
b1101 G
#641
b1110 G
#642
b1111 G
#643
b10000 G
#644
b10001 G
#645
b10010 G
#646
b10011 G
#647
b10100 G
#648
b10101 G
#649
b10110 G
#650
b100110111 7
b0 G
1O
#651
b1 G
0O
#652
b10 G
#653
b11 G
#654
b100 G
#655
b101 G
#656
b110 G
#657
b111 G
#658
b1000 G
#659
b1001 G
#660
b1010 G
#661
b1011 G
#662
b1100 G
#663
b1101 G
#664
b1110 G
#665
b1111 G
#666
b10000 G
#667
b10001 G
#668
b10010 G
#669
b10011 G
#670
b10100 G
#671
b10101 G
#672
b10110 G
#673
b100111000 7
b0 G
1O
#674
b1 G
0O
#675
b10 G
#676
b11 G
#677
b100 G
#678
b101 G
#679
b110 G
#680
b111 G
#681
b1000 G
#682
b1001 G
#683
b1010 G
#684
b1011 G
#685
b1100 G
#686
b1101 G
#687
b1110 G
#688
b1111 G
#689
b10000 G
#690
b10001 G
#691
b10010 G
#692
b10011 G
#693
b10100 G
#694
b10101 G
#695
b10110 G
#696
b100111001 7
b0 G
1O
#697
b1 G
0O
#698
b10 G
#699
b11 G
#700
b100 G
#701
b101 G
#702
b110 G
#703
b111 G
#704
b1000 G
#705
b1001 G
#706
b1010 G
#707
b1011 G
#708
b1100 G
#709
b1101 G
#710
b1110 G
#711
b1111 G
#712
b10000 G
#713
b10001 G
#714
b10010 G
#715
b10011 G
#716
b10100 G
#717
b10101 G
#718
b10110 G
#719
b100111010 7
b0 G
1O
#720
b1 G
0O
#721
b10 G
#722
b11 G
#723
b100 G
#724
b101 G
#725
b110 G
#726
b111 G
#727
b1000 G
#728
b1001 G
#729
b1010 G
#730
b1011 G
#731
b1100 G
#732
b1101 G
#733
b1110 G
#734
b1111 G
#735
b10000 G
#736
b10001 G
#737
b10010 G
#738
b10011 G
#739
b10100 G
#740
b10101 G
#741
b10110 G
#742
b100111011 7
b0 G
1O
#743
b1 G
0O
#744
b10 G
#745
b11 G
#746
b100 G
#747
b101 G
#748
b110 G
#749
b111 G
#750
b1000 G
#751
b1001 G
#752
b1010 G
#753
b1011 G
#754
b1100 G
#755
b1101 G
#756
b1110 G
#757
b1111 G
#758
b10000 G
#759
b10001 G
#760
b10010 G
#761
b10011 G
#762
b10100 G
#763
b10101 G
#764
b10110 G
#765
b100111100 7
b0 G
1O
#766
b1 G
0O
#767
b10 G
#768
b11 G
#769
b100 G
#770
b101 G
#771
b110 G
#772
b111 G
#773
b1000 G
#774
b1001 G
#775
b1010 G
#776
b1011 G
#777
b1100 G
#778
b1101 G
#779
b1110 G
#780
b1111 G
#781
b10000 G
#782
b10001 G
#783
b10010 G
#784
b10011 G
#785
b10100 G
#786
b10101 G
#787
b10110 G
#788
b100111101 7
b0 G
1O
#789
b1 G
0O
#790
b10 G
#791
b11 G
#792
b100 G
#793
b101 G
#794
b110 G
#795
b111 G
#796
b1000 G
#797
b1001 G
#798
b1010 G
#799
b1011 G
#800
b1100 G
#801
b1101 G
#802
b1110 G
#803
b1111 G
#804
b10000 G
#805
b10001 G
#806
b10010 G
#807
b10011 G
#808
b10100 G
#809
b10101 G
#810
b10110 G
#811
b100111110 7
b0 G
1O
#812
b1 G
0O
#813
b10 G
#814
b11 G
#815
b100 G
#816
b101 G
#817
b110 G
#818
b111 G
#819
b1000 G
#820
b1001 G
#821
b1010 G
#822
b1011 G
#823
b1100 G
#824
b1101 G
#825
b1110 G
#826
b1111 G
#827
b10000 G
#828
b10001 G
#829
b10010 G
#830
b10011 G
#831
b10100 G
#832
b10101 G
#833
b10110 G
#834
b100111111 7
b0 G
1O
#835
b1 G
0O
#836
b10 G
#837
b11 G
#838
b100 G
#839
b101 G
#840
b110 G
#841
b111 G
#842
b1000 G
#843
b1001 G
#844
b1010 G
#845
b1011 G
#846
b1100 G
#847
b1101 G
#848
b1110 G
#849
b1111 G
#850
b10000 G
#851
b10001 G
#852
b10010 G
#853
b10011 G
#854
b10100 G
#855
b10101 G
#856
b10110 G
#857
b101000000 7
b0 G
1O
#858
b1 G
0O
#859
b10 G
#860
b11 G
#861
b100 G
#862
b101 G
#863
b110 G
#864
b111 G
#865
b1000 G
#866
b1001 G
#867
b1010 G
#868
b1011 G
#869
b1100 G
#870
b1101 G
#871
b1110 G
#872
b1111 G
#873
b10000 G
#874
b10001 G
#875
b10010 G
#876
b10011 G
#877
b10100 G
#878
b10101 G
#879
b10110 G
#880
b101000001 7
b0 G
1O
#881
b1 G
0O
#882
b10 G
#883
b11 G
#884
b100 G
#885
b101 G
#886
b110 G
#887
b111 G
#888
b1000 G
#889
b1001 G
#890
b1010 G
#891
b1011 G
#892
b1100 G
#893
b1101 G
#894
b1110 G
#895
b1111 G
#896
b10000 G
#897
b10001 G
#898
b10010 G
#899
b10011 G
#900
b10100 G
#901
b10101 G
#902
b10110 G
#903
b101000010 7
b0 G
1O
#904
b1 G
0O
#905
b10 G
#906
b11 G
#907
b100 G
#908
b101 G
#909
b110 G
#910
b111 G
#911
b1000 G
#912
b1001 G
#913
b1010 G
#914
b1011 G
#915
b1100 G
#916
b1101 G
#917
b1110 G
#918
b1111 G
#919
b10000 G
#920
b10001 G
#921
b10010 G
#922
b10011 G
#923
b10100 G
#924
b10101 G
#925
b10110 G
#926
b101000011 7
b0 G
1O
#927
b1 G
0O
#928
b10 G
#929
b11 G
#930
b100 G
#931
b101 G
#932
b110 G
#933
b111 G
#934
b1000 G
#935
b1001 G
#936
b1010 G
#937
b1011 G
#938
b1100 G
#939
b1101 G
#940
b1110 G
#941
b1111 G
#942
b10000 G
#943
b10001 G
#944
b10010 G
#945
b10011 G
#946
b10100 G
#947
b10101 G
#948
b10110 G
#949
b101000100 7
b0 G
1O
#950
b1 G
0O
#951
b10 G
#952
b11 G
#953
b100 G
#954
b101 G
#955
b110 G
#956
b111 G
#957
b1000 G
#958
b1001 G
#959
b1010 G
#960
b1011 G
#961
b1100 G
#962
b1101 G
#963
b1110 G
#964
b1111 G
#965
b10000 G
#966
b10001 G
#967
b10010 G
#968
b10011 G
#969
b10100 G
#970
b10101 G
#971
b10110 G
#972
b101000101 7
b0 G
1O
#973
b1 G
0O
#974
b10 G
#975
b11 G
#976
b100 G
#977
b101 G
#978
b110 G
#979
b111 G
#980
b1000 G
#981
b1001 G
#982
b1010 G
#983
b1011 G
#984
b1100 G
#985
b1101 G
#986
b1110 G
#987
b1111 G
#988
b10000 G
#989
b10001 G
#990
b10010 G
#991
b10011 G
#992
b10100 G
#993
b10101 G
#994
b10110 G
#995
b101000110 7
b0 G
1O
#996
b1 G
0O
#997
b10 G
#998
b11 G
#999
b100 G
#1000
b101 G
#1001
b110 G
#1002
b111 G
#1003
b1000 G
#1004
b1001 G
#1005
b1010 G
#1006
b1011 G
#1007
b1100 G
#1008
b1101 G
#1009
b1110 G
#1010
b1111 G
#1011
b10000 G
#1012
b10001 G
#1013
b10010 G
#1014
b10011 G
#1015
b10100 G
#1016
b10101 G
#1017
b10110 G
#1018
b101000111 7
b0 G
1O
#1019
b1 G
0O
#1020
b10 G
#1021
b11 G
#1022
b100 G
#1023
b101 G
