HA-CJ-200w_bsi-test_v2.05/.Xil/Vivado-24060-DESKTOP-SMDB1TL/hw_ila_data_12/zip_work/waveform.vcd
$date
        2024-Aug-12 18:44:03
$end
$version
        Vivado v2018.3.1_AR71948_AR71948 (64-bit)
$end
$timescale
        1ps
$end
$scope module dut $end
$var reg 1 " \pixel_top_inst/pixel_sync[8].u_pixel_receive/pins[0].data_in_from_pins_delay_buf_reg_n_0_ $end
$var reg 1 # \pixel_top_inst/pixel_sync[8].u_pixel_receive/pins[1].data_in_from_pins_delay_buf_reg_n_0_ $end
$var reg 1 $ \pixel_top_inst/pixel_sync[8].u_pixel_receive/pins[2].data_in_from_pins_delay_buf_reg_n_0_ $end
$var reg 1 % \pixel_top_inst/pixel_sync[8].u_pixel_receive/pins[3].data_in_from_pins_delay_buf_reg_n_0_ $end
$var reg 1 & \pixel_top_inst/pixel_sync[8].u_pixel_receive/pins[4].data_in_from_pins_delay_buf_reg_n_0_ $end
$var reg 1 ' \pixel_top_inst/pixel_sync[8].u_pixel_receive/pins[5].data_in_from_pins_delay_buf_reg_n_0_ $end
$var reg 1 ( \pixel_top_inst/pixel_sync[8].u_pixel_receive/pins[6].data_in_from_pins_delay_buf_reg_n_0_ $end
$var reg 1 ) \pixel_top_inst/pixel_sync[8].u_pixel_receive/pins[7].data_in_from_pins_delay_buf_reg_n_0_ $end
$var reg 1 * \pixel_top_inst/pixel_sync[8].u_pixel_receive/pins[8].data_in_from_pins_delay_buf_reg_n_0_ $end
$var reg 1 + \pixel_top_inst/pixel_sync[8].u_pixel_receive/pins[9].data_in_from_pins_delay_buf_reg_n_0_ $end
$var reg 1 , \pixel_top_inst/pixel_sync[8].u_pixel_receive/pins[10].data_in_from_pins_delay_buf_reg_n_0_ $end
$var reg 1 - \pixel_top_inst/pixel_sync[8].u_pixel_receive/pins[11].data_in_from_pins_delay_buf_reg_n_0_ $end
$var reg 1 . \pixel_top_inst/pixel_sync[8].u_pixel_receive/pixel_frame $end
$var reg 8 / \pixel_top_inst/pixel_sync[8].u_pixel_receive/frame_cnt [7:0] $end
$var reg 16 7 \pixel_top_inst/pixel_sync[8].u_pixel_receive/line_cnt [15:0] $end
$var reg 8 G \pixel_top_inst/pixel_sync[8].u_pixel_receive/bit_cnt [7:0] $end
$var reg 1 O \pixel_top_inst/pixel_sync[8].u_pixel_receive/DATA_EN $end
$var reg 276 P \pixel_top_inst/pixel_sync[8].u_pixel_receive/data_out_276bit [275:0] $end
$var reg 1 J$ _TRIGGER $end
$var reg 1 K$ _WINDOW $end
$var reg 1 L$ _GAP $end
$upscope $end
$enddefinitions $end
#0
$dumpvars
1"
1#
1$
1%
1&
1'
1(
1)
1*
1+
1,
1-
0.
b0 /
b10001110 7
b1001 G
0O
b111111111111110111111111111111111111101111111111111111111111011111111111111111111110111111111111111111111101111111111111111111111011111111111111111111110111111111111111111111101111111111111111111111011111111111111111111110111111111111111111111101111111111111111111111011111111 P
0J$
1K$
0L$
$end
#1
b1010 G
b111111111111101111111111111111111111011111111111111111111110111111111111111111111101111111111111111111111011111111111111111111110111111111111111111111101111111111111111111111011111111111111111111110111111111111111111111101111111111111111111111011111111111111111111110111111111 P
#2
b1011 G
b111111111111011111111111111111111110111111111111111111111101111111111111111111111011111111111111111111110111111111111111111111101111111111111111111111011111111111111111111110111111111111111111111101111111111111111111111011111111111111111111110111111111111111111111101111111111 P
#3
b1100 G
b111111111110111111111111111111111101111111111111111111111011111111111111111111110111111111111111111111101111111111111111111111011111111111111111111110111111111111111111111101111111111111111111111011111111111111111111110111111111111111111111101111111111111111111111011111111111 P
#4
b1101 G
b111111111101111111111111111111111011111111111111111111110111111111111111111111101111111111111111111111011111111111111111111110111111111111111111111101111111111111111111111011111111111111111111110111111111111111111111101111111111111111111111011111111111111111111110111111111111 P
#5
b1110 G
b111111111011111111111111111111110111111111111111111111101111111111111111111111011111111111111111111110111111111111111111111101111111111111111111111011111111111111111111110111111111111111111111101111111111111111111111011111111111111111111110111111111111111111111101111111111111 P
#6
b1111 G
b111111110111111111111111111111101111111111111111111111011111111111111111111110111111111111111111111101111111111111111111111011111111111111111111110111111111111111111111101111111111111111111111011111111111111111111110111111111111111111111101111111111111111111111011111111111111 P
#7
b10000 G
b111111101111111111111111111111011111111111111111111110111111111111111111111101111111111111111111111011111111111111111111110111111111111111111111101111111111111111111111011111111111111111111110111111111111111111111101111111111111111111111011111111111111111111110111111111111111 P
#8
b10001 G
b111111011111111111111111111110111111111111111111111101111111111111111111111011111111111111111111110111111111111111111111101111111111111111111111011111111111111111111110111111111111111111111101111111111111111111111011111111111111111111110111111111111111111111101111111111111111 P
#9
b10010 G
b111110111111111111111111111101111111111111111111111011111111111111111111110111111111111111111111101111111111111111111111011111111111111111111110111111111111111111111101111111111111111111111011111111111111111111110111111111111111111111101111111111111111111111011111111111111111 P
#10
b10011 G
b111101111111111111111111111011111111111111111111110111111111111111111111101111111111111111111111011111111111111111111110111111111111111111111101111111111111111111111011111111111111111111110111111111111111111111101111111111111111111111011111111111111111111110111111111111111111 P
#11
b10100 G
b111011111111111111111111110111111111111111111111101111111111111111111111011111111111111111111110111111111111111111111101111111111111111111111011111111111111111111110111111111111111111111101111111111111111111111011111111111111111111110111111111111111111111101111111111111111111 P
#12
b10101 G
b110111111111111111111111101111111111111111111111011111111111111111111110111111111111111111111101111111111111111111111011111111111111111111110111111111111111111111101111111111111111111111011111111111111111111110111111111111111111111101111111111111111111111011111111111111111111 P
#13
b10110 G
b101111111111111111111111011111111111111111111110111111111111111111111101111111111111111111111011111111111111111111110111111111111111111111101111111111111111111111011111111111111111111110111111111111111111111101111111111111111111111011111111111111111111110111111111111111111111 P
#14
b10001111 7
b0 G
1O
b11111111111111111111110111111111111111111111101111111111111111111111011111111111111111111110111111111111111111111101111111111111111111111011111111111111111111110111111111111111111111101111111111111111111111011111111111111111111110111111111111111111111101111111111111111111111 P
#15
b1 G
0O
b111111111111111111111111111111111111111111111111111111111111111111111111111111111111111111111111111111111111111111111111111111111111111111111111111111111111111111111111111111111111111111111111111111111111111111111111111111111111111111111111111111111111111111111111111111111111 P
#16
b10 G
#17
b11 G
#18
b100 G
#19
b101 G
#20
b110 G
#21
b111 G
#22
b1000 G
#23
b1001 G
#24
b1010 G
#25
b1011 G
#26
b1100 G
#27
b1101 G
#28
b1110 G
#29
b1111 G
#30
b10000 G
#31
b10001 G
#32
b10010 G
#33
b10011 G
#34
b10100 G
#35
b10101 G
#36
b10110 G
#37
0"
0#
0$
0%
0&
0'
0(
0)
0*
0+
0,
0-
b10010000 7
b0 G
1O
#38
1"
1#
1$
1%
1&
1'
1(
1)
1*
1+
1,
1-
b1 G
0O
b111111111111111111111101111111111111111111111011111111111111111111110111111111111111111111101111111111111111111111011111111111111111111110111111111111111111111101111111111111111111111011111111111111111111110111111111111111111111101111111111111111111111011111111111111111111110 P
#39
b10 G
b111111111111111111111011111111111111111111110111111111111111111111101111111111111111111111011111111111111111111110111111111111111111111101111111111111111111111011111111111111111111110111111111111111111111101111111111111111111111011111111111111111111110111111111111111111111101 P
#40
0*
b11 G
b111111111111111111110111111111111111111111101111111111111111111111011111111111111111111110111111111111111111111101111111111111111111111011111111111111111111110111111111111111111111101111111111111111111111011111111111111111111110111111111111111111111101111111111111111111111011 P
#41
1*
b100 G
b111111111111111111101111111111111111111111011111111111111111111110111111111111111111111101101111111111111111111011111111111111111111110111111111111111111111101111111111111111111111011111111111111111111110111111111111111111111101111111111111111111111011111111111111111111110111 P
#42
b101 G
b111111111111111111011111111111111111111110111111111111111111111101111111111111111111111011011111111111111111110111111111111111111111101111111111111111111111011111111111111111111110111111111111111111111101111111111111111111111011111111111111111111110111111111111111111111101111 P
#43
b110 G
b111111111111111110111111111111111111111101111111111111111111111011111111111111111111110110111111111111111111101111111111111111111111011111111111111111111110111111111111111111111101111111111111111111111011111111111111111111110111111111111111111111101111111111111111111111011111 P
#44
b111 G
b111111111111111101111111111111111111111011111111111111111111110111111111111111111111101101111111111111111111011111111111111111111110111111111111111111111101111111111111111111111011111111111111111111110111111111111111111111101111111111111111111111011111111111111111111110111111 P
#45
b1000 G
b111111111111111011111111111111111111110111111111111111111111101111111111111111111111011011111111111111111110111111111111111111111101111111111111111111111011111111111111111111110111111111111111111111101111111111111111111111011111111111111111111110111111111111111111111101111111 P
#46
b1001 G
b111111111111110111111111111111111111101111111111111111111111011111111111111111111110110111111111111111111101111111111111111111111011111111111111111111110111111111111111111111101111111111111111111111011111111111111111111110111111111111111111111101111111111111111111111011111111 P
#47
b1010 G
b111111111111101111111111111111111111011111111111111111111110111111111111111111111101101111111111111111111011111111111111111111110111111111111111111111101111111111111111111111011111111111111111111110111111111111111111111101111111111111111111111011111111111111111111110111111111 P
#48
b1011 G
b111111111111011111111111111111111110111111111111111111111101111111111111111111111011011111111111111111110111111111111111111111101111111111111111111111011111111111111111111110111111111111111111111101111111111111111111111011111111111111111111110111111111111111111111101111111111 P
#49
b1100 G
b111111111110111111111111111111111101111111111111111111111011111111111111111111110110111111111111111111101111111111111111111111011111111111111111111110111111111111111111111101111111111111111111111011111111111111111111110111111111111111111111101111111111111111111111011111111111 P
#50
b1101 G
b111111111101111111111111111111111011111111111111111111110111111111111111111111101101111111111111111111011111111111111111111110111111111111111111111101111111111111111111111011111111111111111111110111111111111111111111101111111111111111111111011111111111111111111110111111111111 P
#51
b1110 G
b111111111011111111111111111111110111111111111111111111101111111111111111111111011011111111111111111110111111111111111111111101111111111111111111111011111111111111111111110111111111111111111111101111111111111111111111011111111111111111111110111111111111111111111101111111111111 P
#52
b1111 G
b111111110111111111111111111111101111111111111111111111011111111111111111111110110111111111111111111101111111111111111111111011111111111111111111110111111111111111111111101111111111111111111111011111111111111111111110111111111111111111111101111111111111111111111011111111111111 P
#53
b10000 G
b111111101111111111111111111111011111111111111111111110111111111111111111111101101111111111111111111011111111111111111111110111111111111111111111101111111111111111111111011111111111111111111110111111111111111111111101111111111111111111111011111111111111111111110111111111111111 P
#54
b10001 G
b111111011111111111111111111110111111111111111111111101111111111111111111111011011111111111111111110111111111111111111111101111111111111111111111011111111111111111111110111111111111111111111101111111111111111111111011111111111111111111110111111111111111111111101111111111111111 P
#55
b10010 G
b111110111111111111111111111101111111111111111111111011111111111111111111110110111111111111111111101111111111111111111111011111111111111111111110111111111111111111111101111111111111111111111011111111111111111111110111111111111111111111101111111111111111111111011111111111111111 P
#56
b10011 G
b111101111111111111111111111011111111111111111111110111111111111111111111101101111111111111111111011111111111111111111110111111111111111111111101111111111111111111111011111111111111111111110111111111111111111111101111111111111111111111011111111111111111111110111111111111111111 P
#57
b10100 G
b111011111111111111111111110111111111111111111111101111111111111111111111011011111111111111111110111111111111111111111101111111111111111111111011111111111111111111110111111111111111111111101111111111111111111111011111111111111111111110111111111111111111111101111111111111111111 P
#58
b10101 G
b110111111111111111111111101111111111111111111111011111111111111111111110110111111111111111111101111111111111111111111011111111111111111111110111111111111111111111101111111111111111111111011111111111111111111110111111111111111111111101111111111111111111111011111111111111111111 P
#59
b10110 G
b101111111111111111111111011111111111111111111110111111111111111111111101101111111111111111111011111111111111111111110111111111111111111111101111111111111111111111011111111111111111111110111111111111111111111101111111111111111111111011111111111111111111110111111111111111111111 P
#60
b10010001 7
b0 G
1O
b11111111111111111111110111111111111111111111101111111111111111111111011011111111111111111110111111111111111111111101111111111111111111111011111111111111111111110111111111111111111111101111111111111111111111011111111111111111111110111111111111111111111101111111111111111111111 P
#61
b1 G
0O
b111111111111111111111111111111111111111111111111111111111111111111111110111111111111111111111111111111111111111111111111111111111111111111111111111111111111111111111111111111111111111111111111111111111111111111111111111111111111111111111111111111111111111111111111111111111111 P
#62
b10 G
b111111111111111111111111111111111111111111111111111111111111111111111101111111111111111111111111111111111111111111111111111111111111111111111111111111111111111111111111111111111111111111111111111111111111111111111111111111111111111111111111111111111111111111111111111111111111 P
#63
b11 G
b111111111111111111111111111111111111111111111111111111111111111111111011111111111111111111111111111111111111111111111111111111111111111111111111111111111111111111111111111111111111111111111111111111111111111111111111111111111111111111111111111111111111111111111111111111111111 P
#64
b100 G
b111111111111111111111111111111111111111111111111111111111111111111111111111111111111111111111111111111111111111111111111111111111111111111111111111111111111111111111111111111111111111111111111111111111111111111111111111111111111111111111111111111111111111111111111111111111111 P
#65
b101 G
#66
b110 G
#67
b111 G
#68
b1000 G
#69
b1001 G
#70
b1010 G
#71
b1011 G
#72
b1100 G
#73
b1101 G
#74
b1110 G
#75
b1111 G
#76
b10000 G
#77
b10001 G
#78
b10010 G
#79
b10011 G
#80
b10100 G
#81
b10101 G
#82
b10110 G
#83
0"
0#
0$
0%
0&
0'
0(
0)
0*
0+
0,
0-
b10010010 7
b0 G
1O
#84
1"
1#
1$
1%
1&
1'
1(
1)
1*
1+
1,
1-
b1 G
0O
b111111111111111111111101111111111111111111111011111111111111111111110111111111111111111111101111111111111111111111011111111111111111111110111111111111111111111101111111111111111111111011111111111111111111110111111111111111111111101111111111111111111111011111111111111111111110 P
#85
b10 G
b111111111111111111111011111111111111111111110111111111111111111111101111111111111111111111011111111111111111111110111111111111111111111101111111111111111111111011111111111111111111110111111111111111111111101111111111111111111111011111111111111111111110111111111111111111111101 P
#86
b11 G
b111111111111111111110111111111111111111111101111111111111111111111011111111111111111111110111111111111111111111101111111111111111111111011111111111111111111110111111111111111111111101111111111111111111111011111111111111111111110111111111111111111111101111111111111111111111011 P
#87
b100 G
b111111111111111111101111111111111111111111011111111111111111111110111111111111111111111101111111111111111111111011111111111111111111110111111111111111111111101111111111111111111111011111111111111111111110111111111111111111111101111111111111111111111011111111111111111111110111 P
#88
b101 G
b111111111111111111011111111111111111111110111111111111111111111101111111111111111111111011111111111111111111110111111111111111111111101111111111111111111111011111111111111111111110111111111111111111111101111111111111111111111011111111111111111111110111111111111111111111101111 P
#89
b110 G
b111111111111111110111111111111111111111101111111111111111111111011111111111111111111110111111111111111111111101111111111111111111111011111111111111111111110111111111111111111111101111111111111111111111011111111111111111111110111111111111111111111101111111111111111111111011111 P
#90
b111 G
b111111111111111101111111111111111111111011111111111111111111110111111111111111111111101111111111111111111111011111111111111111111110111111111111111111111101111111111111111111111011111111111111111111110111111111111111111111101111111111111111111111011111111111111111111110111111 P
#91
b1000 G
b111111111111111011111111111111111111110111111111111111111111101111111111111111111111011111111111111111111110111111111111111111111101111111111111111111111011111111111111111111110111111111111111111111101111111111111111111111011111111111111111111110111111111111111111111101111111 P
#92
b1001 G
b111111111111110111111111111111111111101111111111111111111111011111111111111111111110111111111111111111111101111111111111111111111011111111111111111111110111111111111111111111101111111111111111111111011111111111111111111110111111111111111111111101111111111111111111111011111111 P
#93
b1010 G
b111111111111101111111111111111111111011111111111111111111110111111111111111111111101111111111111111111111011111111111111111111110111111111111111111111101111111111111111111111011111111111111111111110111111111111111111111101111111111111111111111011111111111111111111110111111111 P
#94
b1011 G
b111111111111011111111111111111111110111111111111111111111101111111111111111111111011111111111111111111110111111111111111111111101111111111111111111111011111111111111111111110111111111111111111111101111111111111111111111011111111111111111111110111111111111111111111101111111111 P
#95
b1100 G
b111111111110111111111111111111111101111111111111111111111011111111111111111111110111111111111111111111101111111111111111111111011111111111111111111110111111111111111111111101111111111111111111111011111111111111111111110111111111111111111111101111111111111111111111011111111111 P
#96
b1101 G
b111111111101111111111111111111111011111111111111111111110111111111111111111111101111111111111111111111011111111111111111111110111111111111111111111101111111111111111111111011111111111111111111110111111111111111111111101111111111111111111111011111111111111111111110111111111111 P
#97
b1110 G
b111111111011111111111111111111110111111111111111111111101111111111111111111111011111111111111111111110111111111111111111111101111111111111111111111011111111111111111111110111111111111111111111101111111111111111111111011111111111111111111110111111111111111111111101111111111111 P
#98
b1111 G
b111111110111111111111111111111101111111111111111111111011111111111111111111110111111111111111111111101111111111111111111111011111111111111111111110111111111111111111111101111111111111111111111011111111111111111111110111111111111111111111101111111111111111111111011111111111111 P
#99
b10000 G
b111111101111111111111111111111011111111111111111111110111111111111111111111101111111111111111111111011111111111111111111110111111111111111111111101111111111111111111111011111111111111111111110111111111111111111111101111111111111111111111011111111111111111111110111111111111111 P
#100
b10001 G
b111111011111111111111111111110111111111111111111111101111111111111111111111011111111111111111111110111111111111111111111101111111111111111111111011111111111111111111110111111111111111111111101111111111111111111111011111111111111111111110111111111111111111111101111111111111111 P
#101
b10010 G
b111110111111111111111111111101111111111111111111111011111111111111111111110111111111111111111111101111111111111111111111011111111111111111111110111111111111111111111101111111111111111111111011111111111111111111110111111111111111111111101111111111111111111111011111111111111111 P
#102
b10011 G
b111101111111111111111111111011111111111111111111110111111111111111111111101111111111111111111111011111111111111111111110111111111111111111111101111111111111111111111011111111111111111111110111111111111111111111101111111111111111111111011111111111111111111110111111111111111111 P
#103
b10100 G
b111011111111111111111111110111111111111111111111101111111111111111111111011111111111111111111110111111111111111111111101111111111111111111111011111111111111111111110111111111111111111111101111111111111111111111011111111111111111111110111111111111111111111101111111111111111111 P
#104
b10101 G
b110111111111111111111111101111111111111111111111011111111111111111111110111111111111111111111101111111111111111111111011111111111111111111110111111111111111111111101111111111111111111111011111111111111111111110111111111111111111111101111111111111111111111011111111111111111111 P
#105
b10110 G
b101111111111111111111111011111111111111111111110111111111111111111111101111111111111111111111011111111111111111111110111111111111111111111101111111111111111111111011111111111111111111110111111111111111111111101111111111111111111111011111111111111111111110111111111111111111111 P
#106
b10010011 7
b0 G
1O
b11111111111111111111110111111111111111111111101111111111111111111111011111111111111111111110111111111111111111111101111111111111111111111011111111111111111111110111111111111111111111101111111111111111111111011111111111111111111110111111111111111111111101111111111111111111111 P
#107
b1 G
0O
b111111111111111111111111111111111111111111111111111111111111111111111111111111111111111111111111111111111111111111111111111111111111111111111111111111111111111111111111111111111111111111111111111111111111111111111111111111111111111111111111111111111111111111111111111111111111 P
#108
b10 G
#109
b11 G
#110
b100 G
#111
b101 G
#112
b110 G
#113
b111 G
#114
b1000 G
#115
b1001 G
#116
b1010 G
#117
b1011 G
#118
b1100 G
#119
b1101 G
#120
b1110 G
#121
b1111 G
#122
b10000 G
#123
b10001 G
#124
b10010 G
#125
b10011 G
#126
b10100 G
#127
b10101 G
#128
b10110 G
#129
0"
0#
0$
0%
0&
0'
0(
0)
0*
0+
0,
0-
b10010100 7
b0 G
1O
#130
1"
1#
1$
1%
1&
1'
1(
1)
1*
1+
1,
1-
b1 G
0O
b111111111111111111111101111111111111111111111011111111111111111111110111111111111111111111101111111111111111111111011111111111111111111110111111111111111111111101111111111111111111111011111111111111111111110111111111111111111111101111111111111111111111011111111111111111111110 P
#131
b10 G
b111111111111111111111011111111111111111111110111111111111111111111101111111111111111111111011111111111111111111110111111111111111111111101111111111111111111111011111111111111111111110111111111111111111111101111111111111111111111011111111111111111111110111111111111111111111101 P
#132
b11 G
b111111111111111111110111111111111111111111101111111111111111111111011111111111111111111110111111111111111111111101111111111111111111111011111111111111111111110111111111111111111111101111111111111111111111011111111111111111111110111111111111111111111101111111111111111111111011 P
#133
b100 G
b111111111111111111101111111111111111111111011111111111111111111110111111111111111111111101111111111111111111111011111111111111111111110111111111111111111111101111111111111111111111011111111111111111111110111111111111111111111101111111111111111111111011111111111111111111110111 P
#134
b101 G
b111111111111111111011111111111111111111110111111111111111111111101111111111111111111111011111111111111111111110111111111111111111111101111111111111111111111011111111111111111111110111111111111111111111101111111111111111111111011111111111111111111110111111111111111111111101111 P
#135
b110 G
b111111111111111110111111111111111111111101111111111111111111111011111111111111111111110111111111111111111111101111111111111111111111011111111111111111111110111111111111111111111101111111111111111111111011111111111111111111110111111111111111111111101111111111111111111111011111 P
#136
b111 G
b111111111111111101111111111111111111111011111111111111111111110111111111111111111111101111111111111111111111011111111111111111111110111111111111111111111101111111111111111111111011111111111111111111110111111111111111111111101111111111111111111111011111111111111111111110111111 P
#137
b1000 G
b111111111111111011111111111111111111110111111111111111111111101111111111111111111111011111111111111111111110111111111111111111111101111111111111111111111011111111111111111111110111111111111111111111101111111111111111111111011111111111111111111110111111111111111111111101111111 P
#138
b1001 G
b111111111111110111111111111111111111101111111111111111111111011111111111111111111110111111111111111111111101111111111111111111111011111111111111111111110111111111111111111111101111111111111111111111011111111111111111111110111111111111111111111101111111111111111111111011111111 P
#139
b1010 G
b111111111111101111111111111111111111011111111111111111111110111111111111111111111101111111111111111111111011111111111111111111110111111111111111111111101111111111111111111111011111111111111111111110111111111111111111111101111111111111111111111011111111111111111111110111111111 P
#140
b1011 G
b111111111111011111111111111111111110111111111111111111111101111111111111111111111011111111111111111111110111111111111111111111101111111111111111111111011111111111111111111110111111111111111111111101111111111111111111111011111111111111111111110111111111111111111111101111111111 P
#141
b1100 G
b111111111110111111111111111111111101111111111111111111111011111111111111111111110111111111111111111111101111111111111111111111011111111111111111111110111111111111111111111101111111111111111111111011111111111111111111110111111111111111111111101111111111111111111111011111111111 P
#142
b1101 G
b111111111101111111111111111111111011111111111111111111110111111111111111111111101111111111111111111111011111111111111111111110111111111111111111111101111111111111111111111011111111111111111111110111111111111111111111101111111111111111111111011111111111111111111110111111111111 P
#143
b1110 G
b111111111011111111111111111111110111111111111111111111101111111111111111111111011111111111111111111110111111111111111111111101111111111111111111111011111111111111111111110111111111111111111111101111111111111111111111011111111111111111111110111111111111111111111101111111111111 P
#144
b1111 G
b111111110111111111111111111111101111111111111111111111011111111111111111111110111111111111111111111101111111111111111111111011111111111111111111110111111111111111111111101111111111111111111111011111111111111111111110111111111111111111111101111111111111111111111011111111111111 P
#145
b10000 G
b111111101111111111111111111111011111111111111111111110111111111111111111111101111111111111111111111011111111111111111111110111111111111111111111101111111111111111111111011111111111111111111110111111111111111111111101111111111111111111111011111111111111111111110111111111111111 P
#146
b10001 G
b111111011111111111111111111110111111111111111111111101111111111111111111111011111111111111111111110111111111111111111111101111111111111111111111011111111111111111111110111111111111111111111101111111111111111111111011111111111111111111110111111111111111111111101111111111111111 P
#147
b10010 G
b111110111111111111111111111101111111111111111111111011111111111111111111110111111111111111111111101111111111111111111111011111111111111111111110111111111111111111111101111111111111111111111011111111111111111111110111111111111111111111101111111111111111111111011111111111111111 P
#148
b10011 G
b111101111111111111111111111011111111111111111111110111111111111111111111101111111111111111111111011111111111111111111110111111111111111111111101111111111111111111111011111111111111111111110111111111111111111111101111111111111111111111011111111111111111111110111111111111111111 P
#149
b10100 G
b111011111111111111111111110111111111111111111111101111111111111111111111011111111111111111111110111111111111111111111101111111111111111111111011111111111111111111110111111111111111111111101111111111111111111111011111111111111111111110111111111111111111111101111111111111111111 P
#150
b10101 G
b110111111111111111111111101111111111111111111111011111111111111111111110111111111111111111111101111111111111111111111011111111111111111111110111111111111111111111101111111111111111111111011111111111111111111110111111111111111111111101111111111111111111111011111111111111111111 P
#151
b10110 G
b101111111111111111111111011111111111111111111110111111111111111111111101111111111111111111111011111111111111111111110111111111111111111111101111111111111111111111011111111111111111111110111111111111111111111101111111111111111111111011111111111111111111110111111111111111111111 P
#152
b10010101 7
b0 G
1O
b11111111111111111111110111111111111111111111101111111111111111111111011111111111111111111110111111111111111111111101111111111111111111111011111111111111111111110111111111111111111111101111111111111111111111011111111111111111111110111111111111111111111101111111111111111111111 P
#153
b1 G
0O
b111111111111111111111111111111111111111111111111111111111111111111111111111111111111111111111111111111111111111111111111111111111111111111111111111111111111111111111111111111111111111111111111111111111111111111111111111111111111111111111111111111111111111111111111111111111111 P
#154
b10 G
#155
b11 G
#156
b100 G
#157
b101 G
#158
b110 G
#159
b111 G
#160
b1000 G
#161
b1001 G
#162
b1010 G
#163
b1011 G
#164
b1100 G
#165
b1101 G
#166
b1110 G
#167
b1111 G
#168
b10000 G
#169
b10001 G
#170
b10010 G
#171
b10011 G
#172
b10100 G
#173
b10101 G
#174
b10110 G
#175
0"
0#
0$
0%
0&
0'
0(
0)
0*
0+
0,
0-
b10010110 7
b0 G
1O
#176
1"
1#
1$
1%
1&
1'
1(
1)
1*
1+
1,
1-
b1 G
0O
b111111111111111111111101111111111111111111111011111111111111111111110111111111111111111111101111111111111111111111011111111111111111111110111111111111111111111101111111111111111111111011111111111111111111110111111111111111111111101111111111111111111111011111111111111111111110 P
#177
b10 G
b111111111111111111111011111111111111111111110111111111111111111111101111111111111111111111011111111111111111111110111111111111111111111101111111111111111111111011111111111111111111110111111111111111111111101111111111111111111111011111111111111111111110111111111111111111111101 P
#178
b11 G
b111111111111111111110111111111111111111111101111111111111111111111011111111111111111111110111111111111111111111101111111111111111111111011111111111111111111110111111111111111111111101111111111111111111111011111111111111111111110111111111111111111111101111111111111111111111011 P
#179
b100 G
b111111111111111111101111111111111111111111011111111111111111111110111111111111111111111101111111111111111111111011111111111111111111110111111111111111111111101111111111111111111111011111111111111111111110111111111111111111111101111111111111111111111011111111111111111111110111 P
#180
b101 G
b111111111111111111011111111111111111111110111111111111111111111101111111111111111111111011111111111111111111110111111111111111111111101111111111111111111111011111111111111111111110111111111111111111111101111111111111111111111011111111111111111111110111111111111111111111101111 P
#181
b110 G
b111111111111111110111111111111111111111101111111111111111111111011111111111111111111110111111111111111111111101111111111111111111111011111111111111111111110111111111111111111111101111111111111111111111011111111111111111111110111111111111111111111101111111111111111111111011111 P
#182
b111 G
b111111111111111101111111111111111111111011111111111111111111110111111111111111111111101111111111111111111111011111111111111111111110111111111111111111111101111111111111111111111011111111111111111111110111111111111111111111101111111111111111111111011111111111111111111110111111 P
#183
b1000 G
b111111111111111011111111111111111111110111111111111111111111101111111111111111111111011111111111111111111110111111111111111111111101111111111111111111111011111111111111111111110111111111111111111111101111111111111111111111011111111111111111111110111111111111111111111101111111 P
#184
b1001 G
b111111111111110111111111111111111111101111111111111111111111011111111111111111111110111111111111111111111101111111111111111111111011111111111111111111110111111111111111111111101111111111111111111111011111111111111111111110111111111111111111111101111111111111111111111011111111 P
#185
b1010 G
b111111111111101111111111111111111111011111111111111111111110111111111111111111111101111111111111111111111011111111111111111111110111111111111111111111101111111111111111111111011111111111111111111110111111111111111111111101111111111111111111111011111111111111111111110111111111 P
#186
b1011 G
b111111111111011111111111111111111110111111111111111111111101111111111111111111111011111111111111111111110111111111111111111111101111111111111111111111011111111111111111111110111111111111111111111101111111111111111111111011111111111111111111110111111111111111111111101111111111 P
#187
b1100 G
b111111111110111111111111111111111101111111111111111111111011111111111111111111110111111111111111111111101111111111111111111111011111111111111111111110111111111111111111111101111111111111111111111011111111111111111111110111111111111111111111101111111111111111111111011111111111 P
#188
b1101 G
b111111111101111111111111111111111011111111111111111111110111111111111111111111101111111111111111111111011111111111111111111110111111111111111111111101111111111111111111111011111111111111111111110111111111111111111111101111111111111111111111011111111111111111111110111111111111 P
#189
b1110 G
b111111111011111111111111111111110111111111111111111111101111111111111111111111011111111111111111111110111111111111111111111101111111111111111111111011111111111111111111110111111111111111111111101111111111111111111111011111111111111111111110111111111111111111111101111111111111 P
#190
b1111 G
b111111110111111111111111111111101111111111111111111111011111111111111111111110111111111111111111111101111111111111111111111011111111111111111111110111111111111111111111101111111111111111111111011111111111111111111110111111111111111111111101111111111111111111111011111111111111 P
#191
b10000 G
b111111101111111111111111111111011111111111111111111110111111111111111111111101111111111111111111111011111111111111111111110111111111111111111111101111111111111111111111011111111111111111111110111111111111111111111101111111111111111111111011111111111111111111110111111111111111 P
#192
b10001 G
b111111011111111111111111111110111111111111111111111101111111111111111111111011111111111111111111110111111111111111111111101111111111111111111111011111111111111111111110111111111111111111111101111111111111111111111011111111111111111111110111111111111111111111101111111111111111 P
#193
b10010 G
b111110111111111111111111111101111111111111111111111011111111111111111111110111111111111111111111101111111111111111111111011111111111111111111110111111111111111111111101111111111111111111111011111111111111111111110111111111111111111111101111111111111111111111011111111111111111 P
#194
b10011 G
b111101111111111111111111111011111111111111111111110111111111111111111111101111111111111111111111011111111111111111111110111111111111111111111101111111111111111111111011111111111111111111110111111111111111111111101111111111111111111111011111111111111111111110111111111111111111 P
#195
b10100 G
b111011111111111111111111110111111111111111111111101111111111111111111111011111111111111111111110111111111111111111111101111111111111111111111011111111111111111111110111111111111111111111101111111111111111111111011111111111111111111110111111111111111111111101111111111111111111 P
#196
b10101 G
b110111111111111111111111101111111111111111111111011111111111111111111110111111111111111111111101111111111111111111111011111111111111111111110111111111111111111111101111111111111111111111011111111111111111111110111111111111111111111101111111111111111111111011111111111111111111 P
#197
b10110 G
b101111111111111111111111011111111111111111111110111111111111111111111101111111111111111111111011111111111111111111110111111111111111111111101111111111111111111111011111111111111111111110111111111111111111111101111111111111111111111011111111111111111111110111111111111111111111 P
#198
b10010111 7
b0 G
1O
b11111111111111111111110111111111111111111111101111111111111111111111011111111111111111111110111111111111111111111101111111111111111111111011111111111111111111110111111111111111111111101111111111111111111111011111111111111111111110111111111111111111111101111111111111111111111 P
#199
b1 G
0O
b111111111111111111111111111111111111111111111111111111111111111111111111111111111111111111111111111111111111111111111111111111111111111111111111111111111111111111111111111111111111111111111111111111111111111111111111111111111111111111111111111111111111111111111111111111111111 P
#200
b10 G
#201
b11 G
#202
b100 G
#203
b101 G
#204
b110 G
#205
b111 G
#206
b1000 G
#207
b1001 G
#208
b1010 G
#209
b1011 G
#210
b1100 G
#211
b1101 G
#212
b1110 G
#213
b1111 G
#214
b10000 G
#215
b10001 G
#216
b10010 G
#217
b10011 G
#218
b10100 G
#219
b10101 G
#220
b10110 G
#221
0"
0#
0$
0%
0&
0'
0(
0)
0*
0+
0,
0-
b10011000 7
b0 G
1O
#222
1"
1#
1$
1%
1&
1'
1(
1)
1*
1+
1,
1-
b1 G
0O
b111111111111111111111101111111111111111111111011111111111111111111110111111111111111111111101111111111111111111111011111111111111111111110111111111111111111111101111111111111111111111011111111111111111111110111111111111111111111101111111111111111111111011111111111111111111110 P
