HA-CJ-200w_bsi-test_v2.05/.Xil/Vivado-24060-DESKTOP-SMDB1TL/hw_ila_data_3/zip_work/waveform.vcd
$date
        2024-Aug-12 18:44:17
$end
$version
        Vivado v2018.3.1_AR71948_AR71948 (64-bit)
$end
$timescale
        1ps
$end
$scope module dut $end
$var reg 1 " \pixel_top_inst/pixel_sync[11].u_pixel_receive/pins[0].data_in_from_pins_delay_buf_reg_n_0_ $end
$var reg 1 # \pixel_top_inst/pixel_sync[11].u_pixel_receive/pins[1].data_in_from_pins_delay_buf_reg_n_0_ $end
$var reg 1 $ \pixel_top_inst/pixel_sync[11].u_pixel_receive/pins[2].data_in_from_pins_delay_buf_reg_n_0_ $end
$var reg 1 % \pixel_top_inst/pixel_sync[11].u_pixel_receive/pins[3].data_in_from_pins_delay_buf_reg_n_0_ $end
$var reg 1 & \pixel_top_inst/pixel_sync[11].u_pixel_receive/pins[4].data_in_from_pins_delay_buf_reg_n_0_ $end
$var reg 1 ' \pixel_top_inst/pixel_sync[11].u_pixel_receive/pins[5].data_in_from_pins_delay_buf_reg_n_0_ $end
$var reg 1 ( \pixel_top_inst/pixel_sync[11].u_pixel_receive/pins[6].data_in_from_pins_delay_buf_reg_n_0_ $end
$var reg 1 ) \pixel_top_inst/pixel_sync[11].u_pixel_receive/pins[7].data_in_from_pins_delay_buf_reg_n_0_ $end
$var reg 1 * \pixel_top_inst/pixel_sync[11].u_pixel_receive/pins[8].data_in_from_pins_delay_buf_reg_n_0_ $end
$var reg 1 + \pixel_top_inst/pixel_sync[11].u_pixel_receive/pins[9].data_in_from_pins_delay_buf_reg_n_0_ $end
$var reg 1 , \pixel_top_inst/pixel_sync[11].u_pixel_receive/pins[10].data_in_from_pins_delay_buf_reg_n_0_ $end
$var reg 1 - \pixel_top_inst/pixel_sync[11].u_pixel_receive/pins[11].data_in_from_pins_delay_buf_reg_n_0_ $end
$var reg 1 . \pixel_top_inst/pixel_sync[11].u_pixel_receive/pixel_frame $end
$var reg 8 / \pixel_top_inst/pixel_sync[11].u_pixel_receive/frame_cnt [7:0] $end
$var reg 16 7 \pixel_top_inst/pixel_sync[11].u_pixel_receive/line_cnt [15:0] $end
$var reg 8 G \pixel_top_inst/pixel_sync[11].u_pixel_receive/bit_cnt [7:0] $end
$var reg 1 O \pixel_top_inst/pixel_sync[11].u_pixel_receive/DATA_EN $end
$var reg 276 P \pixel_top_inst/pixel_sync[11].u_pixel_receive/data_out_276bit [275:0] $end
$var reg 1 J$ _TRIGGER $end
$var reg 1 K$ _WINDOW $end
$var reg 1 L$ _GAP $end
$upscope $end
$enddefinitions $end
#0
$dumpvars
1"
1#
1$
1%
1&
1'
1(
1)
1*
1+
1,
1-
0.
b0 /
b111010011 7
b1001 G
0O
b111111111111111111111111111111111111111111111111111111111111111111111111111111111111111111111111111111111111111111111111111111111111111111111111111111111111111111111111111111111111111111111111111111111111111111111111111111111111111111111111111111111111111111111111111111111111 P
0J$
1K$
0L$
$end
#1
b1010 G
#2
b1011 G
#3
b1100 G
#4
b1101 G
#5
b1110 G
#6
b1111 G
#7
b10000 G
#8
b10001 G
#9
b10010 G
#10
b10011 G
#11
b10100 G
#12
b10101 G
#13
0"
0#
0$
0%
0&
0'
0(
0)
0*
0+
0,
0-
b10110 G
#14
1"
1#
1$
1%
1&
1'
1(
1)
1*
1+
1,
1-
b111010100 7
b0 G
1O
b111111111111111111111101111111111111111111111011111111111111111111110111111111111111111111101111111111111111111111011111111111111111111110111111111111111111111101111111111111111111111011111111111111111111110111111111111111111111101111111111111111111111011111111111111111111110 P
#15
b1 G
0O
b111111111111111111111011111111111111111111110111111111111111111111101111111111111111111111011111111111111111111110111111111111111111111101111111111111111111111011111111111111111111110111111111111111111111101111111111111111111111011111111111111111111110111111111111111111111101 P
#16
b10 G
b111111111111111111110111111111111111111111101111111111111111111111011111111111111111111110111111111111111111111101111111111111111111111011111111111111111111110111111111111111111111101111111111111111111111011111111111111111111110111111111111111111111101111111111111111111111011 P
#17
b11 G
b111111111111111111101111111111111111111111011111111111111111111110111111111111111111111101111111111111111111111011111111111111111111110111111111111111111111101111111111111111111111011111111111111111111110111111111111111111111101111111111111111111111011111111111111111111110111 P
#18
b100 G
b111111111111111111011111111111111111111110111111111111111111111101111111111111111111111011111111111111111111110111111111111111111111101111111111111111111111011111111111111111111110111111111111111111111101111111111111111111111011111111111111111111110111111111111111111111101111 P
#19
b101 G
b111111111111111110111111111111111111111101111111111111111111111011111111111111111111110111111111111111111111101111111111111111111111011111111111111111111110111111111111111111111101111111111111111111111011111111111111111111110111111111111111111111101111111111111111111111011111 P
#20
b110 G
b111111111111111101111111111111111111111011111111111111111111110111111111111111111111101111111111111111111111011111111111111111111110111111111111111111111101111111111111111111111011111111111111111111110111111111111111111111101111111111111111111111011111111111111111111110111111 P
#21
b111 G
b111111111111111011111111111111111111110111111111111111111111101111111111111111111111011111111111111111111110111111111111111111111101111111111111111111111011111111111111111111110111111111111111111111101111111111111111111111011111111111111111111110111111111111111111111101111111 P
#22
b1000 G
b111111111111110111111111111111111111101111111111111111111111011111111111111111111110111111111111111111111101111111111111111111111011111111111111111111110111111111111111111111101111111111111111111111011111111111111111111110111111111111111111111101111111111111111111111011111111 P
#23
b1001 G
b111111111111101111111111111111111111011111111111111111111110111111111111111111111101111111111111111111111011111111111111111111110111111111111111111111101111111111111111111111011111111111111111111110111111111111111111111101111111111111111111111011111111111111111111110111111111 P
#24
b1010 G
b111111111111011111111111111111111110111111111111111111111101111111111111111111111011111111111111111111110111111111111111111111101111111111111111111111011111111111111111111110111111111111111111111101111111111111111111111011111111111111111111110111111111111111111111101111111111 P
#25
b1011 G
b111111111110111111111111111111111101111111111111111111111011111111111111111111110111111111111111111111101111111111111111111111011111111111111111111110111111111111111111111101111111111111111111111011111111111111111111110111111111111111111111101111111111111111111111011111111111 P
#26
b1100 G
b111111111101111111111111111111111011111111111111111111110111111111111111111111101111111111111111111111011111111111111111111110111111111111111111111101111111111111111111111011111111111111111111110111111111111111111111101111111111111111111111011111111111111111111110111111111111 P
#27
b1101 G
b111111111011111111111111111111110111111111111111111111101111111111111111111111011111111111111111111110111111111111111111111101111111111111111111111011111111111111111111110111111111111111111111101111111111111111111111011111111111111111111110111111111111111111111101111111111111 P
#28
b1110 G
b111111110111111111111111111111101111111111111111111111011111111111111111111110111111111111111111111101111111111111111111111011111111111111111111110111111111111111111111101111111111111111111111011111111111111111111110111111111111111111111101111111111111111111111011111111111111 P
#29
b1111 G
b111111101111111111111111111111011111111111111111111110111111111111111111111101111111111111111111111011111111111111111111110111111111111111111111101111111111111111111111011111111111111111111110111111111111111111111101111111111111111111111011111111111111111111110111111111111111 P
#30
b10000 G
b111111011111111111111111111110111111111111111111111101111111111111111111111011111111111111111111110111111111111111111111101111111111111111111111011111111111111111111110111111111111111111111101111111111111111111111011111111111111111111110111111111111111111111101111111111111111 P
#31
b10001 G
b111110111111111111111111111101111111111111111111111011111111111111111111110111111111111111111111101111111111111111111111011111111111111111111110111111111111111111111101111111111111111111111011111111111111111111110111111111111111111111101111111111111111111111011111111111111111 P
#32
b10010 G
b111101111111111111111111111011111111111111111111110111111111111111111111101111111111111111111111011111111111111111111110111111111111111111111101111111111111111111111011111111111111111111110111111111111111111111101111111111111111111111011111111111111111111110111111111111111111 P
#33
b10011 G
b111011111111111111111111110111111111111111111111101111111111111111111111011111111111111111111110111111111111111111111101111111111111111111111011111111111111111111110111111111111111111111101111111111111111111111011111111111111111111110111111111111111111111101111111111111111111 P
#34
b10100 G
b110111111111111111111111101111111111111111111111011111111111111111111110111111111111111111111101111111111111111111111011111111111111111111110111111111111111111111101111111111111111111111011111111111111111111110111111111111111111111101111111111111111111111011111111111111111111 P
#35
b10101 G
b101111111111111111111111011111111111111111111110111111111111111111111101111111111111111111111011111111111111111111110111111111111111111111101111111111111111111111011111111111111111111110111111111111111111111101111111111111111111111011111111111111111111110111111111111111111111 P
#36
b10110 G
b11111111111111111111110111111111111111111111101111111111111111111111011111111111111111111110111111111111111111111101111111111111111111111011111111111111111111110111111111111111111111101111111111111111111111011111111111111111111110111111111111111111111101111111111111111111111 P
#37
b111010101 7
b0 G
1O
b111111111111111111111111111111111111111111111111111111111111111111111111111111111111111111111111111111111111111111111111111111111111111111111111111111111111111111111111111111111111111111111111111111111111111111111111111111111111111111111111111111111111111111111111111111111111 P
#38
b1 G
0O
#39
b10 G
#40
b11 G
#41
b100 G
#42
b101 G
#43
b110 G
#44
b111 G
#45
b1000 G
#46
b1001 G
#47
b1010 G
#48
b1011 G
#49
b1100 G
#50
b1101 G
#51
b1110 G
#52
b1111 G
#53
b10000 G
#54
b10001 G
#55
b10010 G
#56
b10011 G
#57
b10100 G
#58
b10101 G
#59
0"
0#
0$
0%
0&
0'
0(
0)
0*
0+
0,
0-
b10110 G
#60
1"
1#
1$
1%
1&
1'
1(
1)
1*
1+
1,
1-
b111010110 7
b0 G
1O
b111111111111111111111101111111111111111111111011111111111111111111110111111111111111111111101111111111111111111111011111111111111111111110111111111111111111111101111111111111111111111011111111111111111111110111111111111111111111101111111111111111111111011111111111111111111110 P
#61
b1 G
0O
b111111111111111111111011111111111111111111110111111111111111111111101111111111111111111111011111111111111111111110111111111111111111111101111111111111111111111011111111111111111111110111111111111111111111101111111111111111111111011111111111111111111110111111111111111111111101 P
#62
b10 G
b111111111111111111110111111111111111111111101111111111111111111111011111111111111111111110111111111111111111111101111111111111111111111011111111111111111111110111111111111111111111101111111111111111111111011111111111111111111110111111111111111111111101111111111111111111111011 P
#63
b11 G
b111111111111111111101111111111111111111111011111111111111111111110111111111111111111111101111111111111111111111011111111111111111111110111111111111111111111101111111111111111111111011111111111111111111110111111111111111111111101111111111111111111111011111111111111111111110111 P
#64
b100 G
b111111111111111111011111111111111111111110111111111111111111111101111111111111111111111011111111111111111111110111111111111111111111101111111111111111111111011111111111111111111110111111111111111111111101111111111111111111111011111111111111111111110111111111111111111111101111 P
#65
b101 G
b111111111111111110111111111111111111111101111111111111111111111011111111111111111111110111111111111111111111101111111111111111111111011111111111111111111110111111111111111111111101111111111111111111111011111111111111111111110111111111111111111111101111111111111111111111011111 P
#66
b110 G
b111111111111111101111111111111111111111011111111111111111111110111111111111111111111101111111111111111111111011111111111111111111110111111111111111111111101111111111111111111111011111111111111111111110111111111111111111111101111111111111111111111011111111111111111111110111111 P
#67
b111 G
b111111111111111011111111111111111111110111111111111111111111101111111111111111111111011111111111111111111110111111111111111111111101111111111111111111111011111111111111111111110111111111111111111111101111111111111111111111011111111111111111111110111111111111111111111101111111 P
#68
b1000 G
b111111111111110111111111111111111111101111111111111111111111011111111111111111111110111111111111111111111101111111111111111111111011111111111111111111110111111111111111111111101111111111111111111111011111111111111111111110111111111111111111111101111111111111111111111011111111 P
#69
b1001 G
b111111111111101111111111111111111111011111111111111111111110111111111111111111111101111111111111111111111011111111111111111111110111111111111111111111101111111111111111111111011111111111111111111110111111111111111111111101111111111111111111111011111111111111111111110111111111 P
#70
b1010 G
b111111111111011111111111111111111110111111111111111111111101111111111111111111111011111111111111111111110111111111111111111111101111111111111111111111011111111111111111111110111111111111111111111101111111111111111111111011111111111111111111110111111111111111111111101111111111 P
#71
b1011 G
b111111111110111111111111111111111101111111111111111111111011111111111111111111110111111111111111111111101111111111111111111111011111111111111111111110111111111111111111111101111111111111111111111011111111111111111111110111111111111111111111101111111111111111111111011111111111 P
#72
b1100 G
b111111111101111111111111111111111011111111111111111111110111111111111111111111101111111111111111111111011111111111111111111110111111111111111111111101111111111111111111111011111111111111111111110111111111111111111111101111111111111111111111011111111111111111111110111111111111 P
#73
b1101 G
b111111111011111111111111111111110111111111111111111111101111111111111111111111011111111111111111111110111111111111111111111101111111111111111111111011111111111111111111110111111111111111111111101111111111111111111111011111111111111111111110111111111111111111111101111111111111 P
#74
b1110 G
b111111110111111111111111111111101111111111111111111111011111111111111111111110111111111111111111111101111111111111111111111011111111111111111111110111111111111111111111101111111111111111111111011111111111111111111110111111111111111111111101111111111111111111111011111111111111 P
#75
b1111 G
b111111101111111111111111111111011111111111111111111110111111111111111111111101111111111111111111111011111111111111111111110111111111111111111111101111111111111111111111011111111111111111111110111111111111111111111101111111111111111111111011111111111111111111110111111111111111 P
#76
b10000 G
b111111011111111111111111111110111111111111111111111101111111111111111111111011111111111111111111110111111111111111111111101111111111111111111111011111111111111111111110111111111111111111111101111111111111111111111011111111111111111111110111111111111111111111101111111111111111 P
#77
b10001 G
b111110111111111111111111111101111111111111111111111011111111111111111111110111111111111111111111101111111111111111111111011111111111111111111110111111111111111111111101111111111111111111111011111111111111111111110111111111111111111111101111111111111111111111011111111111111111 P
#78
b10010 G
b111101111111111111111111111011111111111111111111110111111111111111111111101111111111111111111111011111111111111111111110111111111111111111111101111111111111111111111011111111111111111111110111111111111111111111101111111111111111111111011111111111111111111110111111111111111111 P
#79
b10011 G
b111011111111111111111111110111111111111111111111101111111111111111111111011111111111111111111110111111111111111111111101111111111111111111111011111111111111111111110111111111111111111111101111111111111111111111011111111111111111111110111111111111111111111101111111111111111111 P
#80
b10100 G
b110111111111111111111111101111111111111111111111011111111111111111111110111111111111111111111101111111111111111111111011111111111111111111110111111111111111111111101111111111111111111111011111111111111111111110111111111111111111111101111111111111111111111011111111111111111111 P
#81
b10101 G
b101111111111111111111111011111111111111111111110111111111111111111111101111111111111111111111011111111111111111111110111111111111111111111101111111111111111111111011111111111111111111110111111111111111111111101111111111111111111111011111111111111111111110111111111111111111111 P
#82
b10110 G
b11111111111111111111110111111111111111111111101111111111111111111111011111111111111111111110111111111111111111111101111111111111111111111011111111111111111111110111111111111111111111101111111111111111111111011111111111111111111110111111111111111111111101111111111111111111111 P
#83
b111010111 7
b0 G
1O
b111111111111111111111111111111111111111111111111111111111111111111111111111111111111111111111111111111111111111111111111111111111111111111111111111111111111111111111111111111111111111111111111111111111111111111111111111111111111111111111111111111111111111111111111111111111111 P
#84
b1 G
0O
#85
b10 G
#86
b11 G
#87
b100 G
#88
b101 G
#89
b110 G
#90
b111 G
#91
b1000 G
#92
b1001 G
#93
b1010 G
#94
b1011 G
#95
b1100 G
#96
b1101 G
#97
b1110 G
#98
b1111 G
#99
b10000 G
#100
b10001 G
#101
b10010 G
#102
b10011 G
#103
b10100 G
#104
b10101 G
#105
0"
0#
0$
0%
0&
0'
0(
0)
0*
0+
0,
0-
b10110 G
#106
1"
1#
1$
1%
1&
1'
1(
1)
1*
1+
1,
1-
b111011000 7
b0 G
1O
b111111111111111111111101111111111111111111111011111111111111111111110111111111111111111111101111111111111111111111011111111111111111111110111111111111111111111101111111111111111111111011111111111111111111110111111111111111111111101111111111111111111111011111111111111111111110 P
#107
b1 G
0O
b111111111111111111111011111111111111111111110111111111111111111111101111111111111111111111011111111111111111111110111111111111111111111101111111111111111111111011111111111111111111110111111111111111111111101111111111111111111111011111111111111111111110111111111111111111111101 P
#108
b10 G
b111111111111111111110111111111111111111111101111111111111111111111011111111111111111111110111111111111111111111101111111111111111111111011111111111111111111110111111111111111111111101111111111111111111111011111111111111111111110111111111111111111111101111111111111111111111011 P
#109
b11 G
b111111111111111111101111111111111111111111011111111111111111111110111111111111111111111101111111111111111111111011111111111111111111110111111111111111111111101111111111111111111111011111111111111111111110111111111111111111111101111111111111111111111011111111111111111111110111 P
#110
b100 G
b111111111111111111011111111111111111111110111111111111111111111101111111111111111111111011111111111111111111110111111111111111111111101111111111111111111111011111111111111111111110111111111111111111111101111111111111111111111011111111111111111111110111111111111111111111101111 P
#111
b101 G
b111111111111111110111111111111111111111101111111111111111111111011111111111111111111110111111111111111111111101111111111111111111111011111111111111111111110111111111111111111111101111111111111111111111011111111111111111111110111111111111111111111101111111111111111111111011111 P
#112
b110 G
b111111111111111101111111111111111111111011111111111111111111110111111111111111111111101111111111111111111111011111111111111111111110111111111111111111111101111111111111111111111011111111111111111111110111111111111111111111101111111111111111111111011111111111111111111110111111 P
#113
b111 G
b111111111111111011111111111111111111110111111111111111111111101111111111111111111111011111111111111111111110111111111111111111111101111111111111111111111011111111111111111111110111111111111111111111101111111111111111111111011111111111111111111110111111111111111111111101111111 P
#114
b1000 G
b111111111111110111111111111111111111101111111111111111111111011111111111111111111110111111111111111111111101111111111111111111111011111111111111111111110111111111111111111111101111111111111111111111011111111111111111111110111111111111111111111101111111111111111111111011111111 P
#115
b1001 G
b111111111111101111111111111111111111011111111111111111111110111111111111111111111101111111111111111111111011111111111111111111110111111111111111111111101111111111111111111111011111111111111111111110111111111111111111111101111111111111111111111011111111111111111111110111111111 P
#116
b1010 G
b111111111111011111111111111111111110111111111111111111111101111111111111111111111011111111111111111111110111111111111111111111101111111111111111111111011111111111111111111110111111111111111111111101111111111111111111111011111111111111111111110111111111111111111111101111111111 P
#117
b1011 G
b111111111110111111111111111111111101111111111111111111111011111111111111111111110111111111111111111111101111111111111111111111011111111111111111111110111111111111111111111101111111111111111111111011111111111111111111110111111111111111111111101111111111111111111111011111111111 P
#118
b1100 G
b111111111101111111111111111111111011111111111111111111110111111111111111111111101111111111111111111111011111111111111111111110111111111111111111111101111111111111111111111011111111111111111111110111111111111111111111101111111111111111111111011111111111111111111110111111111111 P
#119
b1101 G
b111111111011111111111111111111110111111111111111111111101111111111111111111111011111111111111111111110111111111111111111111101111111111111111111111011111111111111111111110111111111111111111111101111111111111111111111011111111111111111111110111111111111111111111101111111111111 P
#120
b1110 G
b111111110111111111111111111111101111111111111111111111011111111111111111111110111111111111111111111101111111111111111111111011111111111111111111110111111111111111111111101111111111111111111111011111111111111111111110111111111111111111111101111111111111111111111011111111111111 P
#121
b1111 G
b111111101111111111111111111111011111111111111111111110111111111111111111111101111111111111111111111011111111111111111111110111111111111111111111101111111111111111111111011111111111111111111110111111111111111111111101111111111111111111111011111111111111111111110111111111111111 P
#122
b10000 G
b111111011111111111111111111110111111111111111111111101111111111111111111111011111111111111111111110111111111111111111111101111111111111111111111011111111111111111111110111111111111111111111101111111111111111111111011111111111111111111110111111111111111111111101111111111111111 P
#123
b10001 G
b111110111111111111111111111101111111111111111111111011111111111111111111110111111111111111111111101111111111111111111111011111111111111111111110111111111111111111111101111111111111111111111011111111111111111111110111111111111111111111101111111111111111111111011111111111111111 P
#124
b10010 G
b111101111111111111111111111011111111111111111111110111111111111111111111101111111111111111111111011111111111111111111110111111111111111111111101111111111111111111111011111111111111111111110111111111111111111111101111111111111111111111011111111111111111111110111111111111111111 P
#125
b10011 G
b111011111111111111111111110111111111111111111111101111111111111111111111011111111111111111111110111111111111111111111101111111111111111111111011111111111111111111110111111111111111111111101111111111111111111111011111111111111111111110111111111111111111111101111111111111111111 P
#126
b10100 G
b110111111111111111111111101111111111111111111111011111111111111111111110111111111111111111111101111111111111111111111011111111111111111111110111111111111111111111101111111111111111111111011111111111111111111110111111111111111111111101111111111111111111111011111111111111111111 P
#127
b10101 G
b101111111111111111111111011111111111111111111110111111111111111111111101111111111111111111111011111111111111111111110111111111111111111111101111111111111111111111011111111111111111111110111111111111111111111101111111111111111111111011111111111111111111110111111111111111111111 P
#128
b10110 G
b11111111111111111111110111111111111111111111101111111111111111111111011111111111111111111110111111111111111111111101111111111111111111111011111111111111111111110111111111111111111111101111111111111111111111011111111111111111111110111111111111111111111101111111111111111111111 P
#129
b111011001 7
b0 G
1O
b111111111111111111111111111111111111111111111111111111111111111111111111111111111111111111111111111111111111111111111111111111111111111111111111111111111111111111111111111111111111111111111111111111111111111111111111111111111111111111111111111111111111111111111111111111111111 P
#130
b1 G
0O
#131
b10 G
#132
b11 G
#133
b100 G
#134
b101 G
#135
b110 G
#136
b111 G
#137
b1000 G
#138
b1001 G
#139
b1010 G
#140
b1011 G
#141
b1100 G
#142
b1101 G
#143
b1110 G
#144
b1111 G
#145
b10000 G
#146
b10001 G
#147
b10010 G
#148
b10011 G
#149
b10100 G
#150
b10101 G
#151
0"
0#
0$
0%
0&
0'
0(
0)
0*
0+
0,
0-
b10110 G
#152
1"
1#
1$
1%
1&
1'
1(
1)
1*
1+
1,
1-
b111011010 7
b0 G
1O
b111111111111111111111101111111111111111111111011111111111111111111110111111111111111111111101111111111111111111111011111111111111111111110111111111111111111111101111111111111111111111011111111111111111111110111111111111111111111101111111111111111111111011111111111111111111110 P
#153
b1 G
0O
b111111111111111111111011111111111111111111110111111111111111111111101111111111111111111111011111111111111111111110111111111111111111111101111111111111111111111011111111111111111111110111111111111111111111101111111111111111111111011111111111111111111110111111111111111111111101 P
#154
b10 G
b111111111111111111110111111111111111111111101111111111111111111111011111111111111111111110111111111111111111111101111111111111111111111011111111111111111111110111111111111111111111101111111111111111111111011111111111111111111110111111111111111111111101111111111111111111111011 P
#155
b11 G
b111111111111111111101111111111111111111111011111111111111111111110111111111111111111111101111111111111111111111011111111111111111111110111111111111111111111101111111111111111111111011111111111111111111110111111111111111111111101111111111111111111111011111111111111111111110111 P
#156
b100 G
b111111111111111111011111111111111111111110111111111111111111111101111111111111111111111011111111111111111111110111111111111111111111101111111111111111111111011111111111111111111110111111111111111111111101111111111111111111111011111111111111111111110111111111111111111111101111 P
#157
b101 G
b111111111111111110111111111111111111111101111111111111111111111011111111111111111111110111111111111111111111101111111111111111111111011111111111111111111110111111111111111111111101111111111111111111111011111111111111111111110111111111111111111111101111111111111111111111011111 P
#158
b110 G
b111111111111111101111111111111111111111011111111111111111111110111111111111111111111101111111111111111111111011111111111111111111110111111111111111111111101111111111111111111111011111111111111111111110111111111111111111111101111111111111111111111011111111111111111111110111111 P
#159
b111 G
b111111111111111011111111111111111111110111111111111111111111101111111111111111111111011111111111111111111110111111111111111111111101111111111111111111111011111111111111111111110111111111111111111111101111111111111111111111011111111111111111111110111111111111111111111101111111 P
#160
b1000 G
b111111111111110111111111111111111111101111111111111111111111011111111111111111111110111111111111111111111101111111111111111111111011111111111111111111110111111111111111111111101111111111111111111111011111111111111111111110111111111111111111111101111111111111111111111011111111 P
#161
b1001 G
b111111111111101111111111111111111111011111111111111111111110111111111111111111111101111111111111111111111011111111111111111111110111111111111111111111101111111111111111111111011111111111111111111110111111111111111111111101111111111111111111111011111111111111111111110111111111 P
#162
b1010 G
b111111111111011111111111111111111110111111111111111111111101111111111111111111111011111111111111111111110111111111111111111111101111111111111111111111011111111111111111111110111111111111111111111101111111111111111111111011111111111111111111110111111111111111111111101111111111 P
#163
b1011 G
b111111111110111111111111111111111101111111111111111111111011111111111111111111110111111111111111111111101111111111111111111111011111111111111111111110111111111111111111111101111111111111111111111011111111111111111111110111111111111111111111101111111111111111111111011111111111 P
#164
b1100 G
b111111111101111111111111111111111011111111111111111111110111111111111111111111101111111111111111111111011111111111111111111110111111111111111111111101111111111111111111111011111111111111111111110111111111111111111111101111111111111111111111011111111111111111111110111111111111 P
#165
b1101 G
b111111111011111111111111111111110111111111111111111111101111111111111111111111011111111111111111111110111111111111111111111101111111111111111111111011111111111111111111110111111111111111111111101111111111111111111111011111111111111111111110111111111111111111111101111111111111 P
#166
b1110 G
b111111110111111111111111111111101111111111111111111111011111111111111111111110111111111111111111111101111111111111111111111011111111111111111111110111111111111111111111101111111111111111111111011111111111111111111110111111111111111111111101111111111111111111111011111111111111 P
#167
b1111 G
b111111101111111111111111111111011111111111111111111110111111111111111111111101111111111111111111111011111111111111111111110111111111111111111111101111111111111111111111011111111111111111111110111111111111111111111101111111111111111111111011111111111111111111110111111111111111 P
#168
b10000 G
b111111011111111111111111111110111111111111111111111101111111111111111111111011111111111111111111110111111111111111111111101111111111111111111111011111111111111111111110111111111111111111111101111111111111111111111011111111111111111111110111111111111111111111101111111111111111 P
#169
b10001 G
b111110111111111111111111111101111111111111111111111011111111111111111111110111111111111111111111101111111111111111111111011111111111111111111110111111111111111111111101111111111111111111111011111111111111111111110111111111111111111111101111111111111111111111011111111111111111 P
#170
b10010 G
b111101111111111111111111111011111111111111111111110111111111111111111111101111111111111111111111011111111111111111111110111111111111111111111101111111111111111111111011111111111111111111110111111111111111111111101111111111111111111111011111111111111111111110111111111111111111 P
#171
b10011 G
b111011111111111111111111110111111111111111111111101111111111111111111111011111111111111111111110111111111111111111111101111111111111111111111011111111111111111111110111111111111111111111101111111111111111111111011111111111111111111110111111111111111111111101111111111111111111 P
#172
b10100 G
b110111111111111111111111101111111111111111111111011111111111111111111110111111111111111111111101111111111111111111111011111111111111111111110111111111111111111111101111111111111111111111011111111111111111111110111111111111111111111101111111111111111111111011111111111111111111 P
#173
b10101 G
b101111111111111111111111011111111111111111111110111111111111111111111101111111111111111111111011111111111111111111110111111111111111111111101111111111111111111111011111111111111111111110111111111111111111111101111111111111111111111011111111111111111111110111111111111111111111 P
#174
b10110 G
b11111111111111111111110111111111111111111111101111111111111111111111011111111111111111111110111111111111111111111101111111111111111111111011111111111111111111110111111111111111111111101111111111111111111111011111111111111111111110111111111111111111111101111111111111111111111 P
#175
b111011011 7
b0 G
1O
b111111111111111111111111111111111111111111111111111111111111111111111111111111111111111111111111111111111111111111111111111111111111111111111111111111111111111111111111111111111111111111111111111111111111111111111111111111111111111111111111111111111111111111111111111111111111 P
#176
b1 G
0O
#177
b10 G
#178
b11 G
#179
b100 G
#180
b101 G
#181
b110 G
#182
b111 G
#183
b1000 G
#184
b1001 G
#185
b1010 G
#186
b1011 G
#187
b1100 G
#188
b1101 G
#189
b1110 G
#190
b1111 G
#191
b10000 G
#192
b10001 G
#193
b10010 G
#194
b10011 G
#195
b10100 G
#196
b10101 G
#197
0"
0#
0$
0%
0&
0'
0(
0)
0*
0+
0,
0-
b10110 G
#198
1"
1#
1$
1%
1&
1'
1(
1)
1*
1+
1,
1-
b111011100 7
b0 G
1O
b111111111111111111111101111111111111111111111011111111111111111111110111111111111111111111101111111111111111111111011111111111111111111110111111111111111111111101111111111111111111111011111111111111111111110111111111111111111111101111111111111111111111011111111111111111111110 P
#199
b1 G
0O
b111111111111111111111011111111111111111111110111111111111111111111101111111111111111111111011111111111111111111110111111111111111111111101111111111111111111111011111111111111111111110111111111111111111111101111111111111111111111011111111111111111111110111111111111111111111101 P
#200
b10 G
b111111111111111111110111111111111111111111101111111111111111111111011111111111111111111110111111111111111111111101111111111111111111111011111111111111111111110111111111111111111111101111111111111111111111011111111111111111111110111111111111111111111101111111111111111111111011 P
#201
b11 G
b111111111111111111101111111111111111111111011111111111111111111110111111111111111111111101111111111111111111111011111111111111111111110111111111111111111111101111111111111111111111011111111111111111111110111111111111111111111101111111111111111111111011111111111111111111110111 P
#202
b100 G
b111111111111111111011111111111111111111110111111111111111111111101111111111111111111111011111111111111111111110111111111111111111111101111111111111111111111011111111111111111111110111111111111111111111101111111111111111111111011111111111111111111110111111111111111111111101111 P
#203
b101 G
b111111111111111110111111111111111111111101111111111111111111111011111111111111111111110111111111111111111111101111111111111111111111011111111111111111111110111111111111111111111101111111111111111111111011111111111111111111110111111111111111111111101111111111111111111111011111 P
#204
b110 G
b111111111111111101111111111111111111111011111111111111111111110111111111111111111111101111111111111111111111011111111111111111111110111111111111111111111101111111111111111111111011111111111111111111110111111111111111111111101111111111111111111111011111111111111111111110111111 P
#205
b111 G
b111111111111111011111111111111111111110111111111111111111111101111111111111111111111011111111111111111111110111111111111111111111101111111111111111111111011111111111111111111110111111111111111111111101111111111111111111111011111111111111111111110111111111111111111111101111111 P
#206
b1000 G
b111111111111110111111111111111111111101111111111111111111111011111111111111111111110111111111111111111111101111111111111111111111011111111111111111111110111111111111111111111101111111111111111111111011111111111111111111110111111111111111111111101111111111111111111111011111111 P
#207
b1001 G
b111111111111101111111111111111111111011111111111111111111110111111111111111111111101111111111111111111111011111111111111111111110111111111111111111111101111111111111111111111011111111111111111111110111111111111111111111101111111111111111111111011111111111111111111110111111111 P
#208
b1010 G
b111111111111011111111111111111111110111111111111111111111101111111111111111111111011111111111111111111110111111111111111111111101111111111111111111111011111111111111111111110111111111111111111111101111111111111111111111011111111111111111111110111111111111111111111101111111111 P
#209
b1011 G
b111111111110111111111111111111111101111111111111111111111011111111111111111111110111111111111111111111101111111111111111111111011111111111111111111110111111111111111111111101111111111111111111111011111111111111111111110111111111111111111111101111111111111111111111011111111111 P
#210
b1100 G
b111111111101111111111111111111111011111111111111111111110111111111111111111111101111111111111111111111011111111111111111111110111111111111111111111101111111111111111111111011111111111111111111110111111111111111111111101111111111111111111111011111111111111111111110111111111111 P
#211
b1101 G
b111111111011111111111111111111110111111111111111111111101111111111111111111111011111111111111111111110111111111111111111111101111111111111111111111011111111111111111111110111111111111111111111101111111111111111111111011111111111111111111110111111111111111111111101111111111111 P
#212
b1110 G
b111111110111111111111111111111101111111111111111111111011111111111111111111110111111111111111111111101111111111111111111111011111111111111111111110111111111111111111111101111111111111111111111011111111111111111111110111111111111111111111101111111111111111111111011111111111111 P
#213
b1111 G
b111111101111111111111111111111011111111111111111111110111111111111111111111101111111111111111111111011111111111111111111110111111111111111111111101111111111111111111111011111111111111111111110111111111111111111111101111111111111111111111011111111111111111111110111111111111111 P
#214
b10000 G
b111111011111111111111111111110111111111111111111111101111111111111111111111011111111111111111111110111111111111111111111101111111111111111111111011111111111111111111110111111111111111111111101111111111111111111111011111111111111111111110111111111111111111111101111111111111111 P
#215
b10001 G
b111110111111111111111111111101111111111111111111111011111111111111111111110111111111111111111111101111111111111111111111011111111111111111111110111111111111111111111101111111111111111111111011111111111111111111110111111111111111111111101111111111111111111111011111111111111111 P
#216
b10010 G
b111101111111111111111111111011111111111111111111110111111111111111111111101111111111111111111111011111111111111111111110111111111111111111111101111111111111111111111011111111111111111111110111111111111111111111101111111111111111111111011111111111111111111110111111111111111111 P
#217
b10011 G
b111011111111111111111111110111111111111111111111101111111111111111111111011111111111111111111110111111111111111111111101111111111111111111111011111111111111111111110111111111111111111111101111111111111111111111011111111111111111111110111111111111111111111101111111111111111111 P
