HA-CJ-200w_bsi-test_v2.05/.Xil/Vivado-24060-DESKTOP-SMDB1TL/hw_ila_data_4/zip_work/waveform.vcd
$date
        2024-Aug-12 18:44:23
$end
$version
        Vivado v2018.3.1_AR71948_AR71948 (64-bit)
$end
$timescale
        1ps
$end
$scope module dut $end
$var reg 1 " \pixel_top_inst/pixel_sync[12].u_pixel_receive/pins[0].data_in_from_pins_delay_buf_reg_n_0_ $end
$var reg 1 # \pixel_top_inst/pixel_sync[12].u_pixel_receive/pins[1].data_in_from_pins_delay_buf_reg_n_0_ $end
$var reg 1 $ \pixel_top_inst/pixel_sync[12].u_pixel_receive/pins[2].data_in_from_pins_delay_buf_reg_n_0_ $end
$var reg 1 % \pixel_top_inst/pixel_sync[12].u_pixel_receive/pins[3].data_in_from_pins_delay_buf_reg_n_0_ $end
$var reg 1 & \pixel_top_inst/pixel_sync[12].u_pixel_receive/pins[4].data_in_from_pins_delay_buf_reg_n_0_ $end
$var reg 1 ' \pixel_top_inst/pixel_sync[12].u_pixel_receive/pins[5].data_in_from_pins_delay_buf_reg_n_0_ $end
$var reg 1 ( \pixel_top_inst/pixel_sync[12].u_pixel_receive/pins[6].data_in_from_pins_delay_buf_reg_n_0_ $end
$var reg 1 ) \pixel_top_inst/pixel_sync[12].u_pixel_receive/pins[7].data_in_from_pins_delay_buf_reg_n_0_ $end
$var reg 1 * \pixel_top_inst/pixel_sync[12].u_pixel_receive/pins[8].data_in_from_pins_delay_buf_reg_n_0_ $end
$var reg 1 + \pixel_top_inst/pixel_sync[12].u_pixel_receive/pins[9].data_in_from_pins_delay_buf_reg_n_0_ $end
$var reg 1 , \pixel_top_inst/pixel_sync[12].u_pixel_receive/pins[10].data_in_from_pins_delay_buf_reg_n_0_ $end
$var reg 1 - \pixel_top_inst/pixel_sync[12].u_pixel_receive/pins[11].data_in_from_pins_delay_buf_reg_n_0_ $end
$var reg 1 . \pixel_top_inst/pixel_sync[12].u_pixel_receive/pixel_frame $end
$var reg 8 / \pixel_top_inst/pixel_sync[12].u_pixel_receive/frame_cnt [7:0] $end
$var reg 16 7 \pixel_top_inst/pixel_sync[12].u_pixel_receive/line_cnt [15:0] $end
$var reg 8 G \pixel_top_inst/pixel_sync[12].u_pixel_receive/bit_cnt [7:0] $end
$var reg 1 O \pixel_top_inst/pixel_sync[12].u_pixel_receive/DATA_EN $end
$var reg 276 P \pixel_top_inst/pixel_sync[12].u_pixel_receive/data_out_276bit [275:0] $end
$var reg 1 J$ _TRIGGER $end
$var reg 1 K$ _WINDOW $end
$var reg 1 L$ _GAP $end
$upscope $end
$enddefinitions $end
#0
$dumpvars
1"
1#
1$
1%
1&
1'
1(
1)
1*
1+
1,
1-
0.
b0 /
b1100 7
b1011 G
0O
b111111111111111111111111111111111111111111111111111111111111111111111111111111111111111111111111111111111111111111111111111111111111111111111111111111111111111111111111111111111111111111111111111111111111111111111111111111111111111111111111111111111111111111111111111111111111 P
0J$
1K$
0L$
$end
#1
b1100 G
#2
b1101 G
#3
b1110 G
#4
b1111 G
#5
b10000 G
#6
b10001 G
#7
b10010 G
#8
b10011 G
#9
b10100 G
#10
b10101 G
#11
b10110 G
#12
b1101 7
b0 G
1O
#13
b1 G
0O
#14
b10 G
#15
b11 G
#16
b100 G
#17
b101 G
#18
b110 G
#19
b111 G
#20
b1000 G
#21
b1001 G
#22
b1010 G
#23
b1011 G
#24
b1100 G
#25
b1101 G
#26
b1110 G
#27
b1111 G
#28
b10000 G
#29
b10001 G
#30
b10010 G
#31
b10011 G
#32
b10100 G
#33
b10101 G
#34
b10110 G
#35
b1110 7
b0 G
1O
#36
b1 G
0O
#37
b10 G
#38
b11 G
#39
b100 G
#40
b101 G
#41
b110 G
#42
b111 G
#43
b1000 G
#44
b1001 G
#45
b1010 G
#46
b1011 G
#47
b1100 G
#48
b1101 G
#49
b1110 G
#50
b1111 G
#51
b10000 G
#52
b10001 G
#53
b10010 G
#54
b10011 G
#55
b10100 G
#56
b10101 G
#57
b10110 G
#58
b1111 7
b0 G
1O
#59
b1 G
0O
#60
b10 G
#61
b11 G
#62
b100 G
#63
b101 G
#64
b110 G
#65
b111 G
#66
b1000 G
#67
b1001 G
#68
b1010 G
#69
b1011 G
#70
b1100 G
#71
b1101 G
#72
b1110 G
#73
b1111 G
#74
b10000 G
#75
b10001 G
#76
b10010 G
#77
b10011 G
#78
b10100 G
#79
b10101 G
#80
b10110 G
#81
b10000 7
b0 G
1O
#82
b1 G
0O
#83
b10 G
#84
b11 G
#85
b100 G
#86
b101 G
#87
b110 G
#88
b111 G
#89
b1000 G
#90
b1001 G
#91
b1010 G
#92
b1011 G
#93
b1100 G
#94
b1101 G
#95
b1110 G
#96
b1111 G
#97
b10000 G
#98
b10001 G
#99
b10010 G
#100
b10011 G
#101
b10100 G
#102
b10101 G
#103
b10110 G
#104
b10001 7
b0 G
1O
#105
b1 G
0O
#106
b10 G
#107
b11 G
#108
b100 G
#109
b101 G
#110
b110 G
#111
b111 G
#112
b1000 G
#113
b1001 G
#114
b1010 G
#115
b1011 G
#116
b1100 G
#117
b1101 G
#118
b1110 G
#119
b1111 G
#120
b10000 G
#121
b10001 G
#122
b10010 G
#123
b10011 G
#124
b10100 G
#125
b10101 G
#126
b10110 G
#127
b10010 7
b0 G
1O
#128
b1 G
0O
#129
b10 G
#130
b11 G
#131
b100 G
#132
b101 G
#133
b110 G
#134
b111 G
#135
b1000 G
#136
b1001 G
#137
b1010 G
#138
b1011 G
#139
b1100 G
#140
b1101 G
#141
b1110 G
#142
b1111 G
#143
b10000 G
#144
b10001 G
#145
b10010 G
#146
b10011 G
#147
b10100 G
#148
b10101 G
#149
b10110 G
#150
b10011 7
b0 G
1O
#151
b1 G
0O
#152
b10 G
#153
b11 G
#154
b100 G
#155
b101 G
#156
b110 G
#157
b111 G
#158
b1000 G
#159
b1001 G
#160
b1010 G
#161
b1011 G
#162
b1100 G
#163
b1101 G
#164
b1110 G
#165
b1111 G
#166
b10000 G
#167
b10001 G
#168
b10010 G
#169
b10011 G
#170
b10100 G
#171
b10101 G
#172
b10110 G
#173
b10100 7
b0 G
1O
#174
b1 G
0O
#175
b10 G
#176
b11 G
#177
b100 G
#178
b101 G
#179
b110 G
#180
b111 G
#181
b1000 G
#182
b1001 G
#183
b1010 G
#184
b1011 G
#185
b1100 G
#186
b1101 G
#187
b1110 G
#188
b1111 G
#189
b10000 G
#190
b10001 G
#191
b10010 G
#192
b10011 G
#193
b10100 G
#194
b10101 G
#195
b10110 G
#196
0,
b10101 7
b0 G
1O
#197
1,
b1 G
0O
b111111111111111111111111111111111111111111111011111111111111111111111111111111111111111111111111111111111111111111111111111111111111111111111111111111111111111111111111111111111111111111111111111111111111111111111111111111111111111111111111111111111111111111111111111111111111 P
#198
b10 G
b111111111111111111111111111111111111111111110111111111111111111111111111111111111111111111111111111111111111111111111111111111111111111111111111111111111111111111111111111111111111111111111111111111111111111111111111111111111111111111111111111111111111111111111111111111111111 P
#199
b11 G
b111111111111111111111111111111111111111111101111111111111111111111111111111111111111111111111111111111111111111111111111111111111111111111111111111111111111111111111111111111111111111111111111111111111111111111111111111111111111111111111111111111111111111111111111111111111111 P
#200
b100 G
b111111111111111111111111111111111111111111011111111111111111111111111111111111111111111111111111111111111111111111111111111111111111111111111111111111111111111111111111111111111111111111111111111111111111111111111111111111111111111111111111111111111111111111111111111111111111 P
#201
b101 G
b111111111111111111111111111111111111111110111111111111111111111111111111111111111111111111111111111111111111111111111111111111111111111111111111111111111111111111111111111111111111111111111111111111111111111111111111111111111111111111111111111111111111111111111111111111111111 P
#202
b110 G
b111111111111111111111111111111111111111101111111111111111111111111111111111111111111111111111111111111111111111111111111111111111111111111111111111111111111111111111111111111111111111111111111111111111111111111111111111111111111111111111111111111111111111111111111111111111111 P
#203
b111 G
b111111111111111111111111111111111111111011111111111111111111111111111111111111111111111111111111111111111111111111111111111111111111111111111111111111111111111111111111111111111111111111111111111111111111111111111111111111111111111111111111111111111111111111111111111111111111 P
#204
b1000 G
b111111111111111111111111111111111111110111111111111111111111111111111111111111111111111111111111111111111111111111111111111111111111111111111111111111111111111111111111111111111111111111111111111111111111111111111111111111111111111111111111111111111111111111111111111111111111 P
#205
b1001 G
b111111111111111111111111111111111111101111111111111111111111111111111111111111111111111111111111111111111111111111111111111111111111111111111111111111111111111111111111111111111111111111111111111111111111111111111111111111111111111111111111111111111111111111111111111111111111 P
#206
b1010 G
b111111111111111111111111111111111111011111111111111111111111111111111111111111111111111111111111111111111111111111111111111111111111111111111111111111111111111111111111111111111111111111111111111111111111111111111111111111111111111111111111111111111111111111111111111111111111 P
#207
b1011 G
b111111111111111111111111111111111110111111111111111111111111111111111111111111111111111111111111111111111111111111111111111111111111111111111111111111111111111111111111111111111111111111111111111111111111111111111111111111111111111111111111111111111111111111111111111111111111 P
#208
b1100 G
b111111111111111111111111111111111101111111111111111111111111111111111111111111111111111111111111111111111111111111111111111111111111111111111111111111111111111111111111111111111111111111111111111111111111111111111111111111111111111111111111111111111111111111111111111111111111 P
#209
b1101 G
b111111111111111111111111111111111011111111111111111111111111111111111111111111111111111111111111111111111111111111111111111111111111111111111111111111111111111111111111111111111111111111111111111111111111111111111111111111111111111111111111111111111111111111111111111111111111 P
#210
b1110 G
b111111111111111111111111111111110111111111111111111111111111111111111111111111111111111111111111111111111111111111111111111111111111111111111111111111111111111111111111111111111111111111111111111111111111111111111111111111111111111111111111111111111111111111111111111111111111 P
#211
b1111 G
b111111111111111111111111111111101111111111111111111111111111111111111111111111111111111111111111111111111111111111111111111111111111111111111111111111111111111111111111111111111111111111111111111111111111111111111111111111111111111111111111111111111111111111111111111111111111 P
#212
b10000 G
b111111111111111111111111111111011111111111111111111111111111111111111111111111111111111111111111111111111111111111111111111111111111111111111111111111111111111111111111111111111111111111111111111111111111111111111111111111111111111111111111111111111111111111111111111111111111 P
#213
b10001 G
b111111111111111111111111111110111111111111111111111111111111111111111111111111111111111111111111111111111111111111111111111111111111111111111111111111111111111111111111111111111111111111111111111111111111111111111111111111111111111111111111111111111111111111111111111111111111 P
#214
b10010 G
b111111111111111111111111111101111111111111111111111111111111111111111111111111111111111111111111111111111111111111111111111111111111111111111111111111111111111111111111111111111111111111111111111111111111111111111111111111111111111111111111111111111111111111111111111111111111 P
#215
b10011 G
b111111111111111111111111111011111111111111111111111111111111111111111111111111111111111111111111111111111111111111111111111111111111111111111111111111111111111111111111111111111111111111111111111111111111111111111111111111111111111111111111111111111111111111111111111111111111 P
#216
b10100 G
b111111111111111111111111110111111111111111111111111111111111111111111111111111111111111111111111111111111111111111111111111111111111111111111111111111111111111111111111111111111111111111111111111111111111111111111111111111111111111111111111111111111111111111111111111111111111 P
#217
b10101 G
b111111111111111111111111101111111111111111111111111111111111111111111111111111111111111111111111111111111111111111111111111111111111111111111111111111111111111111111111111111111111111111111111111111111111111111111111111111111111111111111111111111111111111111111111111111111111 P
#218
b10110 G
b111111111111111111111111011111111111111111111111111111111111111111111111111111111111111111111111111111111111111111111111111111111111111111111111111111111111111111111111111111111111111111111111111111111111111111111111111111111111111111111111111111111111111111111111111111111111 P
#219
b10110 7
b0 G
1O
b111111111111111111111110111111111111111111111111111111111111111111111111111111111111111111111111111111111111111111111111111111111111111111111111111111111111111111111111111111111111111111111111111111111111111111111111111111111111111111111111111111111111111111111111111111111111 P
#220
b1 G
0O
b111111111111111111111111111111111111111111111111111111111111111111111111111111111111111111111111111111111111111111111111111111111111111111111111111111111111111111111111111111111111111111111111111111111111111111111111111111111111111111111111111111111111111111111111111111111111 P
#221
b10 G
#222
b11 G
#223
b100 G
#224
b101 G
#225
b110 G
#226
b111 G
#227
b1000 G
#228
b1001 G
#229
b1010 G
#230
b1011 G
#231
b1100 G
#232
b1101 G
#233
b1110 G
#234
b1111 G
#235
b10000 G
#236
b10001 G
#237
b10010 G
#238
b10011 G
#239
b10100 G
#240
b10101 G
#241
b10110 G
#242
b10111 7
b0 G
1O
#243
b1 G
0O
#244
b10 G
#245
b11 G
#246
b100 G
#247
b101 G
#248
b110 G
#249
b111 G
#250
b1000 G
#251
b1001 G
#252
b1010 G
#253
b1011 G
#254
b1100 G
#255
b1101 G
#256
b1110 G
#257
b1111 G
#258
b10000 G
#259
b10001 G
#260
b10010 G
#261
b10011 G
#262
b10100 G
#263
b10101 G
#264
b10110 G
#265
b11000 7
b0 G
1O
#266
b1 G
0O
#267
b10 G
#268
b11 G
#269
b100 G
#270
b101 G
#271
b110 G
#272
b111 G
#273
b1000 G
#274
b1001 G
#275
b1010 G
#276
b1011 G
#277
b1100 G
#278
b1101 G
#279
b1110 G
#280
b1111 G
#281
b10000 G
#282
b10001 G
#283
b10010 G
#284
b10011 G
#285
b10100 G
#286
b10101 G
#287
b10110 G
#288
b11001 7
b0 G
1O
#289
b1 G
0O
#290
b10 G
#291
b11 G
#292
b100 G
#293
b101 G
#294
b110 G
#295
b111 G
#296
b1000 G
#297
b1001 G
#298
b1010 G
#299
b1011 G
#300
b1100 G
#301
b1101 G
#302
b1110 G
#303
b1111 G
#304
b10000 G
#305
b10001 G
#306
b10010 G
#307
b10011 G
#308
b10100 G
#309
b10101 G
#310
b10110 G
#311
b11010 7
b0 G
1O
#312
b1 G
0O
#313
b10 G
#314
b11 G
#315
b100 G
#316
b101 G
#317
b110 G
#318
b111 G
#319
b1000 G
#320
b1001 G
#321
b1010 G
#322
b1011 G
#323
b1100 G
#324
b1101 G
#325
b1110 G
#326
b1111 G
#327
b10000 G
#328
b10001 G
#329
b10010 G
#330
b10011 G
#331
b10100 G
#332
b10101 G
#333
b10110 G
#334
b11011 7
b0 G
1O
#335
b1 G
0O
#336
b10 G
#337
b11 G
#338
b100 G
#339
b101 G
#340
b110 G
#341
b111 G
#342
b1000 G
#343
b1001 G
#344
b1010 G
#345
b1011 G
#346
b1100 G
#347
b1101 G
#348
b1110 G
#349
b1111 G
#350
b10000 G
#351
b10001 G
#352
b10010 G
#353
b10011 G
#354
b10100 G
#355
b10101 G
#356
b10110 G
#357
b11100 7
b0 G
1O
#358
b1 G
0O
#359
b10 G
#360
b11 G
#361
b100 G
#362
b101 G
#363
b110 G
#364
b111 G
#365
b1000 G
#366
b1001 G
#367
b1010 G
#368
b1011 G
#369
b1100 G
#370
b1101 G
#371
b1110 G
#372
b1111 G
#373
b10000 G
#374
b10001 G
#375
b10010 G
#376
b10011 G
#377
b10100 G
#378
b10101 G
#379
b10110 G
#380
b11101 7
b0 G
1O
#381
b1 G
0O
#382
b10 G
#383
b11 G
#384
b100 G
#385
b101 G
#386
b110 G
#387
b111 G
#388
b1000 G
#389
b1001 G
#390
b1010 G
#391
b1011 G
#392
b1100 G
#393
b1101 G
#394
b1110 G
#395
b1111 G
#396
b10000 G
#397
b10001 G
#398
b10010 G
#399
b10011 G
#400
b10100 G
#401
b10101 G
#402
b10110 G
#403
b11110 7
b0 G
1O
#404
b1 G
0O
#405
b10 G
#406
b11 G
#407
b100 G
#408
b101 G
#409
b110 G
#410
b111 G
#411
b1000 G
#412
b1001 G
#413
b1010 G
#414
b1011 G
#415
b1100 G
#416
b1101 G
#417
b1110 G
#418
b1111 G
#419
b10000 G
#420
b10001 G
#421
b10010 G
#422
b10011 G
#423
b10100 G
#424
b10101 G
#425
b10110 G
#426
b11111 7
b0 G
1O
#427
b1 G
0O
#428
b10 G
#429
b11 G
#430
b100 G
#431
b101 G
#432
b110 G
#433
b111 G
#434
b1000 G
#435
b1001 G
#436
b1010 G
#437
b1011 G
#438
b1100 G
#439
b1101 G
#440
b1110 G
#441
b1111 G
#442
b10000 G
#443
b10001 G
#444
b10010 G
#445
b10011 G
#446
b10100 G
#447
b10101 G
#448
b10110 G
#449
b100000 7
b0 G
1O
#450
b1 G
0O
#451
b10 G
#452
b11 G
#453
b100 G
#454
b101 G
#455
b110 G
#456
b111 G
#457
b1000 G
#458
b1001 G
#459
b1010 G
#460
b1011 G
#461
b1100 G
#462
b1101 G
#463
b1110 G
#464
b1111 G
#465
b10000 G
#466
b10001 G
#467
b10010 G
#468
b10011 G
#469
b10100 G
#470
b10101 G
#471
b10110 G
#472
b100001 7
b0 G
1O
#473
b1 G
0O
#474
b10 G
#475
b11 G
#476
b100 G
#477
b101 G
#478
b110 G
#479
b111 G
#480
b1000 G
#481
b1001 G
#482
b1010 G
#483
b1011 G
#484
b1100 G
#485
b1101 G
#486
b1110 G
#487
b1111 G
#488
b10000 G
#489
b10001 G
#490
b10010 G
#491
b10011 G
#492
b10100 G
#493
b10101 G
#494
b10110 G
#495
b100010 7
b0 G
1O
#496
b1 G
0O
#497
b10 G
#498
b11 G
#499
b100 G
#500
b101 G
#501
b110 G
#502
b111 G
#503
b1000 G
#504
b1001 G
#505
b1010 G
#506
b1011 G
#507
b1100 G
#508
b1101 G
#509
b1110 G
#510
b1111 G
#511
b10000 G
#512
b10001 G
1J$
#513
b10010 G
#514
b10011 G
#515
b10100 G
#516
b10101 G
#517
b10110 G
#518
b100011 7
b0 G
1O
#519
b1 G
0O
#520
b10 G
#521
b11 G
#522
b100 G
#523
b101 G
#524
b110 G
#525
b111 G
#526
b1000 G
#527
b1001 G
#528
b1010 G
#529
b1011 G
#530
b1100 G
#531
b1101 G
#532
b1110 G
#533
b1111 G
#534
b10000 G
#535
b10001 G
#536
b10010 G
#537
b10011 G
#538
b10100 G
#539
b10101 G
#540
b10110 G
#541
b100100 7
b0 G
1O
#542
b1 G
0O
#543
b10 G
#544
b11 G
#545
b100 G
#546
b101 G
#547
b110 G
#548
b111 G
#549
b1000 G
#550
b1001 G
#551
b1010 G
#552
b1011 G
#553
b1100 G
#554
b1101 G
#555
b1110 G
#556
b1111 G
#557
b10000 G
#558
b10001 G
#559
b10010 G
#560
b10011 G
#561
b10100 G
#562
b10101 G
#563
b10110 G
#564
b100101 7
b0 G
1O
#565
b1 G
0O
#566
b10 G
#567
b11 G
#568
b100 G
#569
b101 G
#570
b110 G
#571
b111 G
#572
b1000 G
#573
b1001 G
#574
b1010 G
#575
b1011 G
#576
b1100 G
#577
b1101 G
#578
b1110 G
#579
b1111 G
#580
b10000 G
#581
b10001 G
#582
b10010 G
#583
b10011 G
#584
b10100 G
#585
b10101 G
#586
b10110 G
#587
b100110 7
b0 G
1O
#588
b1 G
0O
#589
b10 G
#590
b11 G
#591
b100 G
#592
b101 G
#593
b110 G
#594
b111 G
#595
b1000 G
#596
b1001 G
#597
b1010 G
#598
b1011 G
#599
b1100 G
#600
b1101 G
#601
b1110 G
#602
b1111 G
#603
b10000 G
#604
b10001 G
#605
b10010 G
#606
b10011 G
#607
b10100 G
#608
b10101 G
#609
b10110 G
#610
b100111 7
b0 G
1O
#611
b1 G
0O
#612
b10 G
#613
b11 G
#614
b100 G
#615
b101 G
#616
b110 G
#617
b111 G
#618
b1000 G
#619
b1001 G
#620
b1010 G
#621
b1011 G
#622
b1100 G
#623
b1101 G
#624
b1110 G
#625
b1111 G
#626
b10000 G
#627
b10001 G
#628
b10010 G
#629
b10011 G
#630
b10100 G
#631
b10101 G
#632
b10110 G
#633
b101000 7
b0 G
1O
#634
b1 G
0O
#635
b10 G
#636
b11 G
#637
b100 G
#638
b101 G
#639
b110 G
#640
b111 G
#641
b1000 G
#642
b1001 G
#643
b1010 G
#644
b1011 G
#645
b1100 G
#646
b1101 G
#647
b1110 G
#648
b1111 G
#649
b10000 G
#650
b10001 G
#651
b10010 G
#652
b10011 G
#653
b10100 G
#654
b10101 G
#655
b10110 G
#656
b101001 7
b0 G
1O
#657
b1 G
0O
#658
b10 G
#659
b11 G
#660
b100 G
#661
b101 G
#662
b110 G
#663
b111 G
#664
b1000 G
#665
b1001 G
#666
b1010 G
#667
b1011 G
#668
b1100 G
#669
b1101 G
#670
b1110 G
#671
b1111 G
#672
b10000 G
#673
b10001 G
#674
b10010 G
#675
b10011 G
#676
b10100 G
#677
b10101 G
#678
b10110 G
#679
b101010 7
b0 G
1O
#680
b1 G
0O
#681
b10 G
#682
b11 G
#683
b100 G
#684
b101 G
#685
b110 G
#686
b111 G
#687
b1000 G
#688
b1001 G
#689
b1010 G
#690
b1011 G
#691
b1100 G
#692
b1101 G
#693
b1110 G
#694
b1111 G
#695
b10000 G
#696
b10001 G
#697
b10010 G
#698
b10011 G
#699
b10100 G
#700
b10101 G
#701
b10110 G
#702
b101011 7
b0 G
1O
#703
b1 G
0O
#704
b10 G
#705
b11 G
#706
b100 G
#707
b101 G
#708
b110 G
#709
b111 G
#710
b1000 G
#711
b1001 G
#712
b1010 G
#713
b1011 G
#714
b1100 G
#715
b1101 G
#716
b1110 G
#717
b1111 G
#718
b10000 G
#719
b10001 G
#720
b10010 G
#721
b10011 G
#722
b10100 G
#723
b10101 G
#724
b10110 G
#725
b101100 7
b0 G
1O
#726
b1 G
0O
#727
b10 G
#728
b11 G
#729
b100 G
#730
b101 G
#731
b110 G
#732
b111 G
#733
b1000 G
#734
b1001 G
#735
b1010 G
#736
b1011 G
#737
b1100 G
#738
b1101 G
#739
b1110 G
#740
b1111 G
#741
b10000 G
#742
b10001 G
#743
b10010 G
#744
b10011 G
#745
b10100 G
#746
b10101 G
#747
b10110 G
#748
b101101 7
b0 G
1O
#749
b1 G
0O
#750
b10 G
#751
b11 G
#752
b100 G
#753
b101 G
#754
b110 G
#755
b111 G
#756
b1000 G
#757
b1001 G
#758
b1010 G
#759
b1011 G
#760
b1100 G
#761
b1101 G
#762
b1110 G
#763
b1111 G
#764
b10000 G
#765
b10001 G
#766
b10010 G
#767
b10011 G
#768
b10100 G
#769
b10101 G
#770
b10110 G
#771
b101110 7
b0 G
1O
#772
b1 G
0O
#773
b10 G
#774
b11 G
#775
b100 G
#776
b101 G
#777
b110 G
#778
b111 G
#779
b1000 G
#780
b1001 G
#781
b1010 G
#782
b1011 G
#783
b1100 G
#784
b1101 G
#785
b1110 G
#786
b1111 G
#787
b10000 G
#788
b10001 G
#789
b10010 G
#790
b10011 G
#791
b10100 G
#792
b10101 G
#793
b10110 G
#794
b101111 7
b0 G
1O
#795
b1 G
0O
#796
b10 G
#797
b11 G
#798
b100 G
#799
b101 G
#800
b110 G
#801
b111 G
#802
b1000 G
#803
b1001 G
#804
b1010 G
#805
b1011 G
#806
b1100 G
#807
b1101 G
#808
b1110 G
#809
b1111 G
#810
b10000 G
#811
b10001 G
#812
b10010 G
#813
b10011 G
#814
b10100 G
#815
b10101 G
#816
b10110 G
#817
b110000 7
b0 G
1O
#818
b1 G
0O
#819
b10 G
#820
b11 G
#821
b100 G
#822
b101 G
#823
b110 G
#824
b111 G
#825
b1000 G
#826
b1001 G
#827
b1010 G
#828
b1011 G
#829
b1100 G
#830
b1101 G
#831
b1110 G
#832
b1111 G
#833
b10000 G
#834
b10001 G
#835
b10010 G
#836
b10011 G
#837
b10100 G
#838
b10101 G
#839
b10110 G
#840
b110001 7
b0 G
1O
#841
b1 G
0O
#842
b10 G
#843
b11 G
#844
b100 G
#845
b101 G
#846
b110 G
#847
b111 G
#848
b1000 G
#849
b1001 G
#850
b1010 G
#851
b1011 G
#852
b1100 G
#853
b1101 G
#854
b1110 G
#855
b1111 G
#856
b10000 G
#857
b10001 G
#858
b10010 G
#859
b10011 G
#860
b10100 G
#861
b10101 G
#862
b10110 G
#863
b110010 7
b0 G
1O
#864
b1 G
0O
#865
b10 G
#866
b11 G
#867
b100 G
#868
b101 G
#869
b110 G
#870
b111 G
#871
b1000 G
#872
b1001 G
#873
b1010 G
#874
b1011 G
#875
b1100 G
#876
b1101 G
#877
b1110 G
#878
b1111 G
#879
b10000 G
#880
b10001 G
#881
b10010 G
#882
b10011 G
#883
b10100 G
#884
b10101 G
#885
b10110 G
#886
b110011 7
b0 G
1O
#887
b1 G
0O
#888
b10 G
#889
b11 G
#890
b100 G
#891
b101 G
#892
b110 G
#893
b111 G
#894
b1000 G
#895
b1001 G
#896
b1010 G
#897
b1011 G
#898
b1100 G
#899
b1101 G
#900
b1110 G
#901
b1111 G
#902
b10000 G
#903
b10001 G
#904
b10010 G
#905
b10011 G
#906
b10100 G
#907
b10101 G
#908
b10110 G
#909
b110100 7
b0 G
1O
#910
b1 G
0O
#911
b10 G
#912
b11 G
#913
b100 G
#914
b101 G
#915
b110 G
#916
b111 G
#917
b1000 G
#918
b1001 G
#919
b1010 G
#920
b1011 G
#921
b1100 G
#922
b1101 G
#923
b1110 G
#924
b1111 G
#925
b10000 G
#926
b10001 G
#927
b10010 G
#928
b10011 G
#929
b10100 G
#930
b10101 G
#931
b10110 G
#932
b110101 7
b0 G
1O
#933
b1 G
0O
#934
b10 G
#935
b11 G
#936
b100 G
#937
b101 G
#938
b110 G
#939
b111 G
#940
b1000 G
#941
b1001 G
#942
b1010 G
#943
b1011 G
#944
b1100 G
#945
b1101 G
#946
b1110 G
#947
b1111 G
#948
b10000 G
#949
b10001 G
#950
b10010 G
#951
b10011 G
#952
b10100 G
#953
b10101 G
#954
b10110 G
#955
b110110 7
b0 G
1O
#956
b1 G
0O
#957
b10 G
#958
b11 G
#959
b100 G
#960
b101 G
#961
b110 G
#962
b111 G
#963
b1000 G
#964
b1001 G
#965
b1010 G
#966
b1011 G
#967
b1100 G
#968
b1101 G
#969
b1110 G
#970
b1111 G
#971
b10000 G
#972
b10001 G
#973
b10010 G
#974
b10011 G
#975
b10100 G
#976
b10101 G
#977
b10110 G
#978
b110111 7
b0 G
1O
#979
b1 G
0O
#980
b10 G
#981
b11 G
#982
b100 G
#983
b101 G
#984
b110 G
#985
b111 G
#986
b1000 G
#987
b1001 G
#988
b1010 G
#989
b1011 G
#990
b1100 G
#991
b1101 G
#992
b1110 G
#993
b1111 G
#994
b10000 G
#995
b10001 G
#996
b10010 G
#997
b10011 G
#998
b10100 G
#999
b10101 G
#1000
b10110 G
#1001
b111000 7
b0 G
1O
#1002
b1 G
0O
#1003
b10 G
#1004
b11 G
#1005
b100 G
#1006
b101 G
#1007
b110 G
#1008
b111 G
#1009
b1000 G
#1010
b1001 G
#1011
b1010 G
#1012
b1011 G
#1013
b1100 G
#1014
b1101 G
#1015
b1110 G
#1016
b1111 G
#1017
b10000 G
#1018
b10001 G
#1019
b10010 G
#1020
b10011 G
#1021
b10100 G
#1022
b10101 G
#1023
b10110 G
