HA-CJ-200w_bsi-test_v2.05/project_1.srcs/sim_1/new/dump.vcd
$date
	Wed Oct 02 14:45:34 2024
$end
$version
	Icarus Verilog
$end
$timescale
	1ns
$end
$scope module sim_TFP $end
$var wire 5 ! q0 [4:0] $end
$var reg 4 " addr_q [3:0] $end
$var reg 1 # clk $end
$var reg 1 $ clk_q $end
$var reg 1 % read_sel $end
$var reg 1 & rstn $end
$var reg 4 ' spike_addr [3:0] $end
$var reg 1 ( spike_data_i $end
$var reg 1 ) spike_valid $end
$var integer 32 * i [31:0] $end
$var integer 32 + j [31:0] $end
$scope module dut $end
$var wire 4 , addr_q [3:0] $end
$var wire 1 # clk $end
$var wire 1 $ clk_q $end
$var wire 1 % read_sel $end
$var wire 1 & rstn $end
$var wire 4 - spike_addr [3:0] $end
$var wire 1 ( spike_data_i $end
$var wire 1 ) spike_valid $end
$var wire 1 . temp_mem_write_en $end
$var wire 5 / q0 [4:0] $end
$var wire 5 0 interval_data_read [4:0] $end
$var wire 1 1 async_mem_recon0_en $end
$var reg 4 2 current_spike_addr [3:0] $end
$var reg 4 3 current_spike_addr_pp1 [3:0] $end
$var reg 3 4 frame_counter [2:0] $end
$var reg 5 5 interval_data_process [4:0] $end
$var reg 5 6 interval_data_save [4:0] $end
$var reg 3 7 out_cnt [2:0] $end
$var reg 1 8 spike_data_i_ff1 $end
$var integer 32 9 j [31:0] $end
$scope module async_mem_recon0 $end
$var wire 4 : addr0 [3:0] $end
$var wire 4 ; addr1 [3:0] $end
$var wire 1 % ce0 $end
$var wire 1 1 ce1 $end
$var wire 1 # clk $end
$var wire 5 < d1 [4:0] $end
$var wire 1 1 we1 $end
$var reg 5 = q0 [4:0] $end
$var integer 32 > i [31:0] $end
$upscope $end
$scope module temp_mem $end
$var wire 4 ? addr0 [3:0] $end
$var wire 4 @ addr1 [3:0] $end
$var wire 1 ) ce0 $end
$var wire 1 . ce1 $end
$var wire 1 # clk $end
$var wire 5 A d1 [4:0] $end
$var wire 1 . we1 $end
$var reg 5 B q0 [4:0] $end
$var integer 32 C i [31:0] $end
$upscope $end
$upscope $end
$upscope $end
$enddefinitions $end
#0
$dumpvars
b1010 C
bx B
b0 A
b0 @
b0 ?
b1010 >
bx =
b0 <
b0 ;
b0 :
bx 9
x8
b0 7
b0 6
b0 5
b0 4
b0 3
b0 2
01
bx 0
bx /
0.
b0 -
b0 ,
bx +
bx *
0)
0(
b0 '
0&
1%
0$
0#
b0 "
bx !
$end
#3
b0 !
b0 /
b0 =
1$
1#
#6
0$
0#
#9
1$
1#
#10
1&
b0 *
b0 +
#12
0$
0#
#15
b1 "
b1 ,
b1 :
b1 '
b1 -
b1 ?
1)
b1 +
b1 *
1$
1#
#18
0$
0#
#21
0)
b0 0
b0 B
1.
11
b1 3
b10 5
b10 A
08
b10 +
b10 *
b1 9
1$
1#
#24
0$
0#
#27
b11 +
b11 *
1$
1#
#30
0$
0#
#33
b100 +
b100 *
1$
1#
#36
0$
0#
#39
b101 +
b101 *
1$
1#
#42
0$
0#
#45
b110 +
b110 *
1$
1#
#48
0$
0#
#51
b111 +
b111 *
1$
1#
#54
0$
0#
#57
b1000 +
b1000 *
1$
1#
#60
0$
0#
#63
b1001 +
b1001 *
1$
1#
#66
0$
0#
#69
b1010 +
b1010 *
1$
1#
#72
0$
0#
#75
b10 "
b10 ,
b10 :
b10 '
b10 -
b10 ?
1)
1(
b1011 +
b1011 *
1$
1#
#78
0$
0#
#81
0)
b1 2
b1 ;
b1 @
b10 3
18
b1100 +
b1100 *
b1 9
1$
1#
#84
0$
0#
#87
b1101 +
b1101 *
1$
1#
#90
0$
0#
#93
b1110 +
b1110 *
1$
1#
#96
0$
0#
#99
b1111 +
b1111 *
1$
1#
#102
0$
0#
#105
b10000 +
b10000 *
1$
1#
#108
0$
0#
#111
b10001 +
b10001 *
1$
1#
#114
0$
0#
#117
b10010 +
b10010 *
1$
1#
#120
0$
0#
#123
b10011 +
b10011 *
1$
1#
#126
0$
0#
#129
b10100 +
b10100 *
1$
1#
#132
0$
0#
#135
b11 "
b11 ,
b11 :
b11 '
b11 -
b11 ?
1)
b10101 +
b10101 *
1$
1#
#138
0$
0#
#141
0)
b10 2
b10 ;
b10 @
b11 3
b10 6
b10 <
b1 5
b1 A
b10110 +
b10110 *
b1 9
1$
1#
#144
0$
0#
#147
b10111 +
b10111 *
1$
1#
#150
0$
0#
#153
b11000 +
b11000 *
1$
1#
#156
0$
0#
#159
b11001 +
b11001 *
1$
1#
#162
0$
0#
#165
b11010 +
b11010 *
1$
1#
#168
0$
0#
#171
b11011 +
b11011 *
1$
1#
#174
0$
0#
#177
b11100 +
b11100 *
1$
1#
#180
0$
0#
#183
b11101 +
b11101 *
1$
1#
#186
0$
0#
#189
b11110 +
b11110 *
1$
1#
#192
0$
0#
#195
b100 "
b100 ,
b100 :
b100 '
b100 -
b100 ?
1)
b11111 +
b11111 *
1$
1#
#198
0$
0#
#201
0)
b11 2
b11 ;
b11 @
b100 3
b1 6
b1 <
b100000 +
b100000 *
b1 9
1$
1#
#204
0$
0#
#207
b100001 +
b100001 *
1$
1#
#210
0$
0#
#213
b100010 +
b100010 *
1$
1#
#216
0$
0#
#219
b100011 +
b100011 *
1$
1#
#222
0$
0#
#225
b100100 +
b100100 *
1$
1#
#228
0$
0#
#231
b100101 +
b100101 *
1$
1#
#234
0$
0#
#237
b100110 +
b100110 *
1$
1#
#240
0$
0#
#243
b100111 +
b100111 *
1$
1#
#246
0$
0#
#249
b101000 +
b101000 *
1$
1#
#252
0$
0#
#255
b101 "
b101 ,
b101 :
b101 '
b101 -
b101 ?
1)
b101001 +
b101001 *
1$
1#
#258
0$
0#
#261
0)
b100 2
b100 ;
b100 @
b101 3
b101010 +
b101010 *
b1 9
1$
1#
#264
0$
0#
#267
b101011 +
b101011 *
1$
1#
#270
0$
0#
#273
b101100 +
b101100 *
1$
1#
#276
0$
0#
#279
b101101 +
b101101 *
1$
1#
#282
0$
0#
#285
b101110 +
b101110 *
1$
1#
#288
0$
0#
#291
b101111 +
b101111 *
1$
1#
#294
0$
0#
#297
b110000 +
b110000 *
1$
1#
#300
0$
0#
#303
b110001 +
b110001 *
1$
1#
#306
0$
0#
#309
b110010 +
b110010 *
1$
1#
#312
0$
0#
#315
b110 "
b110 ,
b110 :
b110 '
b110 -
b110 ?
1)
b110011 +
b110011 *
1$
1#
#318
0$
0#
#321
0)
b101 2
b101 ;
b101 @
b110 3
b110100 +
b110100 *
b1 9
1$
1#
#324
0$
0#
#327
b110101 +
b110101 *
1$
1#
#330
0$
0#
#333
b110110 +
b110110 *
1$
1#
#336
0$
0#
#339
b110111 +
b110111 *
1$
1#
#342
0$
0#
#345
b111000 +
b111000 *
1$
1#
#348
0$
0#
#351
b111001 +
b111001 *
1$
1#
#354
0$
0#
#357
b111010 +
b111010 *
1$
1#
#360
0$
0#
#363
b111011 +
b111011 *
1$
1#
#366
0$
0#
#369
b111100 +
b111100 *
1$
1#
#372
0$
0#
#375
b111 "
b111 ,
b111 :
b111 '
b111 -
b111 ?
1)
b111101 +
b111101 *
1$
1#
#378
0$
0#
#381
0)
b110 2
b110 ;
b110 @
b111 3
b111110 +
b111110 *
b1 9
1$
1#
#384
0$
0#
#387
b111111 +
b111111 *
1$
1#
#390
0$
0#
#393
b1000000 +
b1000000 *
1$
1#
#396
0$
0#
#399
b1000001 +
b1000001 *
1$
1#
#402
0$
0#
#405
b1000010 +
b1000010 *
1$
1#
#408
0$
0#
#411
b1000011 +
b1000011 *
1$
1#
#414
0$
0#
#417
b1000100 +
b1000100 *
1$
1#
#420
0$
0#
#423
b1000101 +
b1000101 *
1$
1#
#426
0$
0#
#429
b1000110 +
b1000110 *
1$
1#
#432
0$
0#
#435
b1000 "
b1000 ,
b1000 :
b1000 '
b1000 -
b1000 ?
1)
0(
b1000111 +
b1000111 *
1$
1#
#438
0$
0#
#441
0)
b111 2
b111 ;
b111 @
b1000 3
08
b1001000 +
b1001000 *
b1 9
1$
1#
#444
0$
0#
#447
b1001001 +
b1001001 *
1$
1#
#450
0$
0#
#453
b1001010 +
b1001010 *
1$
1#
#456
0$
0#
#459
b1001011 +
b1001011 *
1$
1#
#462
0$
0#
#465
b1001100 +
b1001100 *
1$
1#
#468
0$
0#
#471
b1001101 +
b1001101 *
1$
1#
#474
0$
0#
#477
b1001110 +
b1001110 *
1$
1#
#480
0$
0#
#483
b1001111 +
b1001111 *
1$
1#
#486
0$
0#
#489
b1010000 +
b1010000 *
1$
1#
#492
0$
0#
#495
b1001 "
b1001 ,
b1001 :
b1001 '
b1001 -
b1001 ?
1)
1(
b1010001 +
b1010001 *
1$
1#
#498
0$
0#
#501
0)
b1000 2
b1000 ;
b1000 @
b1001 3
b10 5
b10 A
18
b1010010 +
b1010010 *
b1 9
1$
1#
#504
0$
0#
#507
b1010011 +
b1010011 *
1$
1#
#510
0$
0#
#513
b1010100 +
b1010100 *
1$
1#
#516
0$
0#
#519
b1010101 +
b1010101 *
1$
1#
#522
0$
0#
#525
b1010110 +
b1010110 *
1$
1#
#528
0$
0#
#531
b1010111 +
b1010111 *
1$
1#
#534
0$
0#
#537
b1011000 +
b1011000 *
1$
1#
#540
0$
0#
#543
b1011001 +
b1011001 *
1$
1#
#546
0$
0#
#549
b1011010 +
b1011010 *
1$
1#
#552
0$
0#
#555
b0 "
b0 ,
b0 :
b0 '
b0 -
b0 ?
1)
b1011011 +
b1011011 *
1$
1#
#558
0$
0#
#561
0)
b10 0
b10 B
b1001 2
b1001 ;
b1001 @
b0 3
b10 6
b10 <
b1 5
b1 A
b1011100 +
b1011100 *
b1 9
1$
1#
#564
0$
0#
#567
b1011101 +
b1011101 *
1$
1#
#570
0$
0#
#573
b1011110 +
b1011110 *
1$
1#
#576
0$
0#
#579
b1011111 +
b1011111 *
1$
1#
#582
0$
0#
#585
b1100000 +
b1100000 *
1$
1#
#588
0$
0#
#591
b1100001 +
b1100001 *
1$
1#
#594
0$
0#
#597
b1100010 +
b1100010 *
1$
1#
#600
0$
0#
#603
b1100011 +
b1100011 *
1$
1#
#606
0$
0#
#609
b1100100 +
b1100100 *
1$
1#
#612
0$
0#
#615
b1 "
b1 ,
b1 :
b1 '
b1 -
b1 ?
1)
0(
b1100101 +
b1100101 *
1$
1#
#618
0$
0#
#621
0)
b1 4
b0 2
b0 ;
b0 @
b1 3
b1 6
b1 <
08
b1100110 +
b1100110 *
b1 9
1$
1#
#624
0$
0#
#627
b1100111 +
b1100111 *
1$
1#
#630
0$
0#
#633
b1101000 +
b1101000 *
1$
1#
#636
0$
0#
#639
b1101001 +
b1101001 *
1$
1#
#642
0$
0#
#645
b1101010 +
b1101010 *
1$
1#
#648
0$
0#
#651
b1101011 +
b1101011 *
1$
1#
#654
0$
0#
#657
b1101100 +
b1101100 *
1$
1#
#660
0$
0#
#663
b1101101 +
b1101101 *
1$
1#
#666
0$
0#
#669
b1101110 +
b1101110 *
1$
1#
#672
0$
0#
#675
b10 "
b10 ,
b10 :
b10 '
b10 -
b10 ?
1)
1(
b1101111 +
b1101111 *
1$
1#
#678
0$
0#
#681
0)
b10 !
b10 /
b10 =
b1 0
b1 B
b1 2
b1 ;
b1 @
b10 3
b11 5
b11 A
18
b1110000 +
b1110000 *
b1 9
1$
1#
#684
0$
0#
#687
b1110001 +
b1110001 *
1$
1#
#690
0$
0#
#693
b1110010 +
b1110010 *
1$
1#
#696
0$
0#
#699
b1110011 +
b1110011 *
1$
1#
#702
0$
0#
#705
b1110100 +
b1110100 *
1$
1#
#708
0$
0#
#711
b1110101 +
b1110101 *
1$
1#
#714
0$
0#
#717
b1110110 +
b1110110 *
1$
1#
#720
0$
0#
#723
b1110111 +
b1110111 *
1$
1#
#726
0$
0#
#729
b1111000 +
b1111000 *
1$
1#
#732
0$
0#
#735
b11 "
b11 ,
b11 :
b11 '
b11 -
b11 ?
1)
b1111001 +
b1111001 *
1$
1#
#738
0$
0#
#741
0)
b1 !
b1 /
b1 =
b10 2
b10 ;
b10 @
b11 3
b11 6
b11 <
b1 5
b1 A
b1111010 +
b1111010 *
b1 9
1$
1#
#744
0$
0#
#747
b1111011 +
b1111011 *
1$
1#
#750
0$
0#
#753
b1111100 +
b1111100 *
1$
1#
#756
0$
0#
#759
b1111101 +
b1111101 *
1$
1#
#762
0$
0#
#765
b1111110 +
b1111110 *
1$
1#
#768
0$
0#
#771
b1111111 +
b1111111 *
1$
1#
#774
0$
0#
#777
b10000000 +
b10000000 *
1$
1#
#780
0$
0#
#783
b10000001 +
b10000001 *
1$
1#
#786
0$
0#
#789
b10000010 +
b10000010 *
1$
1#
#792
0$
0#
#795
b100 "
b100 ,
b100 :
b100 '
b100 -
b100 ?
1)
0(
b10000011 +
b10000011 *
1$
1#
#798
0$
0#
#801
0)
b11 2
b11 ;
b11 @
b100 3
b1 6
b1 <
08
b10000100 +
b10000100 *
b1 9
1$
1#
#804
0$
0#
#807
b10000101 +
b10000101 *
1$
1#
#810
0$
0#
#813
b10000110 +
b10000110 *
1$
1#
#816
0$
0#
#819
b10000111 +
b10000111 *
1$
1#
#822
0$
0#
#825
b10001000 +
b10001000 *
1$
1#
#828
0$
0#
#831
b10001001 +
b10001001 *
1$
1#
#834
0$
0#
#837
b10001010 +
b10001010 *
1$
1#
#840
0$
0#
#843
b10001011 +
b10001011 *
1$
1#
#846
0$
0#
#849
b10001100 +
b10001100 *
1$
1#
#852
0$
0#
#855
b101 "
b101 ,
b101 :
b101 '
b101 -
b101 ?
1)
1(
b10001101 +
b10001101 *
1$
1#
#858
0$
0#
#861
0)
b100 2
b100 ;
b100 @
b101 3
b10 5
b10 A
18
b10001110 +
b10001110 *
b1 9
1$
1#
#864
0$
0#
#867
b10001111 +
b10001111 *
1$
1#
#870
0$
0#
#873
b10010000 +
b10010000 *
1$
1#
#876
0$
0#
#879
b10010001 +
b10010001 *
1$
1#
#882
0$
0#
#885
b10010010 +
b10010010 *
1$
1#
#888
0$
0#
#891
b10010011 +
b10010011 *
1$
1#
#894
0$
0#
#897
b10010100 +
b10010100 *
1$
1#
#900
0$
0#
#903
b10010101 +
b10010101 *
1$
1#
#906
0$
0#
#909
b10010110 +
b10010110 *
1$
1#
#912
0$
0#
#915
b110 "
b110 ,
b110 :
b110 '
b110 -
b110 ?
1)
0(
b10010111 +
b10010111 *
1$
1#
#918
0$
0#
#921
0)
b101 2
b101 ;
b101 @
b110 3
b10 6
b10 <
b1 5
b1 A
08
b10011000 +
b10011000 *
b1 9
1$
1#
#924
0$
0#
#927
b10011001 +
b10011001 *
1$
1#
#930
0$
0#
#933
b10011010 +
b10011010 *
1$
1#
#936
0$
0#
#939
b10011011 +
b10011011 *
1$
1#
#942
0$
0#
#945
b10011100 +
b10011100 *
1$
1#
#948
0$
0#
#951
b10011101 +
b10011101 *
1$
1#
#954
0$
0#
#957
b10011110 +
b10011110 *
1$
1#
#960
0$
0#
#963
b10011111 +
b10011111 *
1$
1#
#966
0$
0#
#969
b10100000 +
b10100000 *
1$
1#
#972
0$
0#
#975
b111 "
b111 ,
b111 :
b111 '
b111 -
b111 ?
1)
1(
b10100001 +
b10100001 *
1$
1#
#978
0$
0#
#981
0)
b110 2
b110 ;
b110 @
b111 3
b10 5
b10 A
18
b10100010 +
b10100010 *
b1 9
1$
1#
#984
0$
0#
#987
b10100011 +
b10100011 *
1$
1#
#990
0$
0#
#993
b10100100 +
b10100100 *
1$
1#
#996
0$
0#
#999
b10100101 +
b10100101 *
1$
1#
#1002
0$
0#
#1005
b10100110 +
b10100110 *
1$
1#
#1008
0$
0#
#1011
b10100111 +
b10100111 *
1$
1#
#1014
0$
0#
#1017
b10101000 +
b10101000 *
1$
1#
#1020
0$
0#
#1023
b10101001 +
b10101001 *
1$
1#
#1026
0$
0#
#1029
b10101010 +
b10101010 *
1$
1#
#1032
0$
0#
#1035
b1000 "
b1000 ,
b1000 :
b1000 '
b1000 -
b1000 ?
1)
0(
b10101011 +
b10101011 *
1$
1#
#1038
0$
0#
#1041
0)
b10 0
b10 B
b111 2
b111 ;
b111 @
b1000 3
b1 5
b1 A
08
b10101100 +
b10101100 *
b1 9
1$
1#
#1044
0$
0#
#1047
b10101101 +
b10101101 *
1$
1#
#1050
0$
0#
#1053
b10101110 +
b10101110 *
1$
1#
#1056
0$
0#
#1059
b10101111 +
b10101111 *
1$
1#
#1062
0$
0#
#1065
b10110000 +
b10110000 *
1$
1#
#1068
0$
0#
#1071
b10110001 +
b10110001 *
1$
1#
#1074
0$
0#
#1077
b10110010 +
b10110010 *
1$
1#
#1080
0$
0#
#1083
b10110011 +
b10110011 *
1$
1#
#1086
0$
0#
#1089
b10110100 +
b10110100 *
1$
1#
#1092
0$
0#
#1095
b1001 "
b1001 ,
b1001 :
b1001 '
b1001 -
b1001 ?
1)
1(
b10110101 +
b10110101 *
1$
1#
#1098
0$
0#
#1101
0)
b10 !
b10 /
b10 =
b1 0
b1 B
b1000 2
b1000 ;
b1000 @
b1001 3
b11 5
b11 A
18
b10110110 +
b10110110 *
b1 9
1$
1#
#1104
0$
0#
#1107
b10110111 +
b10110111 *
1$
1#
#1110
0$
0#
#1113
b10111000 +
b10111000 *
1$
1#
#1116
0$
0#
#1119
b10111001 +
b10111001 *
1$
1#
#1122
0$
0#
#1125
b10111010 +
b10111010 *
1$
1#
#1128
0$
0#
#1131
b10111011 +
b10111011 *
1$
1#
#1134
0$
0#
#1137
b10111100 +
b10111100 *
1$
1#
#1140
0$
0#
#1143
b10111101 +
b10111101 *
1$
1#
#1146
0$
0#
#1149
b10111110 +
b10111110 *
1$
1#
#1152
0$
0#
#1155
b0 "
b0 ,
b0 :
b0 '
b0 -
b0 ?
1)
b10111111 +
b10111111 *
1$
1#
#1158
0$
0#
#1161
0)
b1 !
b1 /
b1 =
b1001 2
b1001 ;
b1001 @
b0 3
b11 6
b11 <
b1 5
b1 A
b11000000 +
b11000000 *
b1 9
1$
1#
#1164
0$
0#
#1167
b11000001 +
b11000001 *
1$
1#
#1170
0$
0#
#1173
b11000010 +
b11000010 *
1$
1#
#1176
0$
0#
#1179
b11000011 +
b11000011 *
1$
1#
#1182
0$
0#
#1185
b11000100 +
b11000100 *
1$
1#
#1188
0$
0#
#1191
b11000101 +
b11000101 *
1$
1#
#1194
0$
0#
#1197
b11000110 +
b11000110 *
1$
1#
#1200
0$
0#
#1203
b11000111 +
b11000111 *
1$
1#
#1206
0$
0#
#1209
b11001000 +
b11001000 *
1$
1#
#1212
0$
0#
#1215
b1 "
b1 ,
b1 :
b1 '
b1 -
b1 ?
1)
0(
b11001001 +
b11001001 *
1$
1#
#1218
0$
0#
#1221
0)
b11 0
b11 B
b10 4
b0 2
b0 ;
b0 @
b1 3
b1 6
b1 <
08
b11001010 +
b11001010 *
b1 9
1$
1#
#1224
0$
0#
#1227
b11001011 +
b11001011 *
1$
1#
#1230
0$
0#
#1233
b11001100 +
b11001100 *
1$
1#
#1236
0$
0#
#1239
b11001101 +
b11001101 *
1$
1#
#1242
0$
0#
#1245
b11001110 +
b11001110 *
1$
1#
#1248
0$
0#
#1251
b11001111 +
b11001111 *
1$
1#
#1254
0$
0#
#1257
b11010000 +
b11010000 *
1$
1#
#1260
0$
0#
#1263
b11010001 +
b11010001 *
1$
1#
#1266
0$
0#
#1269
b11010010 +
b11010010 *
1$
1#
#1272
0$
0#
#1275
b10 "
b10 ,
b10 :
b10 '
b10 -
b10 ?
1)
1(
b11010011 +
b11010011 *
1$
1#
#1278
0$
0#
#1281
0)
b11 !
b11 /
b11 =
b1 0
b1 B
b1 2
b1 ;
b1 @
b10 3
b100 5
b100 A
18
b11010100 +
b11010100 *
b1 9
1$
1#
#1284
0$
0#
#1287
b11010101 +
b11010101 *
1$
1#
#1290
0$
0#
#1293
b11010110 +
b11010110 *
1$
1#
#1296
0$
0#
#1299
b11010111 +
b11010111 *
1$
1#
#1302
0$
0#
#1305
b11011000 +
b11011000 *
1$
1#
#1308
0$
0#
#1311
b11011001 +
b11011001 *
1$
1#
#1314
0$
0#
#1317
b11011010 +
b11011010 *
1$
1#
#1320
0$
0#
#1323
b11011011 +
b11011011 *
1$
1#
#1326
0$
0#
#1329
b11011100 +
b11011100 *
1$
1#
#1332
0$
0#
#1335
b11 "
b11 ,
b11 :
b11 '
b11 -
b11 ?
1)
0(
b11011101 +
b11011101 *
1$
1#
#1338
0$
0#
#1341
0)
b1 !
b1 /
b1 =
b10 2
b10 ;
b10 @
b11 3
b100 6
b100 <
b1 5
b1 A
08
b11011110 +
b11011110 *
b1 9
1$
1#
#1344
0$
0#
#1347
b11011111 +
b11011111 *
1$
1#
#1350
0$
0#
#1353
b11100000 +
b11100000 *
1$
1#
#1356
0$
0#
#1359
b11100001 +
b11100001 *
1$
1#
#1362
0$
0#
#1365
b11100010 +
b11100010 *
1$
1#
#1368
0$
0#
#1371
b11100011 +
b11100011 *
1$
1#
#1374
0$
0#
#1377
b11100100 +
b11100100 *
1$
1#
#1380
0$
0#
#1383
b11100101 +
b11100101 *
1$
1#
#1386
0$
0#
#1389
b11100110 +
b11100110 *
1$
1#
#1392
0$
0#
#1395
b100 "
b100 ,
b100 :
b100 '
b100 -
b100 ?
1)
b11100111 +
b11100111 *
1$
1#
#1398
0$
0#
#1401
0)
b10 0
b10 B
b11 2
b11 ;
b11 @
b100 3
b10 5
b10 A
b11101000 +
b11101000 *
b1 9
1$
1#
#1404
0$
0#
#1407
b11101001 +
b11101001 *
1$
1#
#1410
0$
0#
#1413
b11101010 +
b11101010 *
1$
1#
#1416
0$
0#
#1419
b11101011 +
b11101011 *
1$
1#
#1422
0$
0#
#1425
b11101100 +
b11101100 *
1$
1#
#1428
0$
0#
#1431
b11101101 +
b11101101 *
1$
1#
#1434
0$
0#
#1437
b11101110 +
b11101110 *
1$
1#
#1440
0$
0#
#1443
b11101111 +
b11101111 *
1$
1#
#1446
0$
0#
#1449
b11110000 +
b11110000 *
1$
1#
#1452
0$
0#
#1455
b101 "
b101 ,
b101 :
b101 '
b101 -
b101 ?
1)
b11110001 +
b11110001 *
1$
1#
#1458
0$
0#
#1461
0)
b10 !
b10 /
b10 =
b1 0
b1 B
b100 2
b100 ;
b100 @
b101 3
b11 5
b11 A
b11110010 +
b11110010 *
b1 9
1$
1#
#1464
0$
0#
#1467
b11110011 +
b11110011 *
1$
1#
#1470
0$
0#
#1473
b11110100 +
b11110100 *
1$
1#
#1476
0$
0#
#1479
b11110101 +
b11110101 *
1$
1#
#1482
0$
0#
#1485
b11110110 +
b11110110 *
1$
1#
#1488
0$
0#
#1491
b11110111 +
b11110111 *
1$
1#
#1494
0$
0#
#1497
b11111000 +
b11111000 *
1$
1#
#1500
0$
0#
#1503
b11111001 +
b11111001 *
1$
1#
#1506
0$
0#
#1509
b11111010 +
b11111010 *
1$
1#
#1512
0$
0#
#1515
b110 "
b110 ,
b110 :
b110 '
b110 -
b110 ?
1)
1(
b11111011 +
b11111011 *
1$
1#
#1518
0$
0#
#1521
0)
b10 0
b10 B
b101 2
b101 ;
b101 @
b110 3
b10 5
b10 A
18
b11111100 +
b11111100 *
b1 9
1$
1#
#1524
0$
0#
#1527
b11111101 +
b11111101 *
1$
1#
#1530
0$
0#
#1533
b11111110 +
b11111110 *
1$
1#
#1536
0$
0#
#1539
b11111111 +
b11111111 *
1$
1#
#1542
0$
0#
#1545
b100000000 +
b100000000 *
1$
1#
#1548
0$
0#
#1551
b100000001 +
b100000001 *
1$
1#
#1554
0$
0#
#1557
b100000010 +
b100000010 *
1$
1#
#1560
0$
0#
#1563
b100000011 +
b100000011 *
1$
1#
#1566
0$
0#
#1569
b100000100 +
b100000100 *
1$
1#
#1572
0$
0#
#1575
b111 "
b111 ,
b111 :
b111 '
b111 -
b111 ?
1)
0(
b100000101 +
b100000101 *
1$
1#
#1578
0$
0#
#1581
0)
b1 0
b1 B
b110 2
b110 ;
b110 @
b111 3
b10 6
b10 <
b1 5
b1 A
08
b100000110 +
b100000110 *
b1 9
1$
1#
#1584
0$
0#
#1587
b100000111 +
b100000111 *
1$
1#
#1590
0$
0#
#1593
b100001000 +
b100001000 *
1$
1#
#1596
0$
0#
#1599
b100001001 +
b100001001 *
1$
1#
#1602
0$
0#
#1605
b100001010 +
b100001010 *
1$
1#
#1608
0$
0#
#1611
b100001011 +
b100001011 *
1$
1#
#1614
0$
0#
#1617
b100001100 +
b100001100 *
1$
1#
#1620
0$
0#
#1623
b100001101 +
b100001101 *
1$
1#
#1626
0$
0#
#1629
b100001110 +
b100001110 *
1$
1#
#1632
0$
0#
#1635
b1000 "
b1000 ,
b1000 :
b1000 '
b1000 -
b1000 ?
1)
1(
b100001111 +
b100001111 *
1$
1#
#1638
0$
0#
#1641
0)
b11 0
b11 B
b111 2
b111 ;
b111 @
b1000 3
b10 5
b10 A
18
b100010000 +
b100010000 *
b1 9
1$
1#
#1644
0$
0#
#1647
b100010001 +
b100010001 *
1$
1#
#1650
0$
0#
#1653
b100010010 +
b100010010 *
1$
1#
#1656
0$
0#
#1659
b100010011 +
b100010011 *
1$
1#
#1662
0$
0#
#1665
b100010100 +
b100010100 *
1$
1#
#1668
0$
0#
#1671
b100010101 +
b100010101 *
1$
1#
#1674
0$
0#
#1677
b100010110 +
b100010110 *
1$
1#
#1680
0$
0#
#1683
b100010111 +
b100010111 *
1$
1#
#1686
0$
0#
#1689
b100011000 +
b100011000 *
1$
1#
#1692
0$
0#
#1695
b1001 "
b1001 ,
b1001 :
b1001 '
b1001 -
b1001 ?
1)
b100011001 +
b100011001 *
1$
1#
#1698
0$
0#
#1701
0)
b11 !
b11 /
b11 =
b1 0
b1 B
b1000 2
b1000 ;
b1000 @
b1001 3
b1 5
b1 A
b100011010 +
b100011010 *
b1 9
1$
1#
#1704
0$
0#
#1707
b100011011 +
b100011011 *
1$
1#
#1710
0$
0#
#1713
b100011100 +
b100011100 *
1$
1#
#1716
0$
0#
#1719
b100011101 +
b100011101 *
1$
1#
#1722
0$
0#
#1725
b100011110 +
b100011110 *
1$
1#
#1728
0$
0#
#1731
b100011111 +
b100011111 *
1$
1#
#1734
0$
0#
#1737
b100100000 +
b100100000 *
1$
1#
#1740
0$
0#
#1743
b100100001 +
b100100001 *
1$
1#
#1746
0$
0#
#1749
b100100010 +
b100100010 *
1$
1#
#1752
0$
0#
#1755
b0 "
b0 ,
b0 :
b0 '
b0 -
b0 ?
1)
b100100011 +
b100100011 *
1$
1#
#1758
0$
0#
#1761
0)
b1 !
b1 /
b1 =
b1001 2
b1001 ;
b1001 @
b0 3
b1 6
b1 <
b100100100 +
b100100100 *
b1 9
1$
1#
#1764
0$
0#
#1767
b100100101 +
b100100101 *
1$
1#
#1770
0$
0#
#1773
b100100110 +
b100100110 *
1$
1#
#1776
0$
0#
#1779
b100100111 +
b100100111 *
1$
1#
#1782
0$
0#
#1785
b100101000 +
b100101000 *
1$
1#
#1788
0$
0#
#1791
b100101001 +
b100101001 *
1$
1#
#1794
0$
0#
#1797
b100101010 +
b100101010 *
1$
1#
#1800
0$
0#
#1803
b100101011 +
b100101011 *
1$
1#
#1806
0$
0#
#1809
b100101100 +
b100101100 *
1$
1#
